<?xml version="1.0" encoding="UTF-8" standalone="no"?>
<!-- Created with Inkscape (http://www.inkscape.org/) -->

<svg
   xmlns:dc="http://purl.org/dc/elements/1.1/"
   xmlns:cc="http://creativecommons.org/ns#"
   xmlns:rdf="http://www.w3.org/1999/02/22-rdf-syntax-ns#"
   xmlns:svg="http://www.w3.org/2000/svg"
   xmlns="http://www.w3.org/2000/svg"
   xmlns:sodipodi="http://sodipodi.sourceforge.net/DTD/sodipodi-0.dtd"
   xmlns:inkscape="http://www.inkscape.org/namespaces/inkscape"
   width="210mm"
   height="297mm"
   id="svg3499"
   version="1.1"
   inkscape:version="0.91 r13725"
   sodipodi:docname="UPCmodel.svg">
  <defs
     id="defs3501">
    <marker
       inkscape:stockid="Arrow2Lend"
       orient="auto"
       refY="0.0"
       refX="0.0"
       id="Arrow2Lend"
       style="overflow:visible;">
      <path
         id="path4995"
         style="fill-rule:evenodd;stroke-width:0.62500000;stroke-linejoin:round;"
         d="M 8.7185878,4.0337352 L -2.2072895,0.016013256 L 8.7185884,-4.0017078 C 6.9730900,-1.6296469 6.9831476,1.6157441 8.7185878,4.0337352 z "
         transform="scale(1.1) rotate(180) translate(1,0)" />
    </marker>
    <marker
       inkscape:stockid="Arrow1Lstart-80y"
       orient="auto"
       refY="0"
       refX="0"
       id="Arrow1Lstart-80y"
       style="overflow:visible">
      <path
         inkscape:connector-curvature="0"
         id="path12816"
         d="M 0,0 5,-5 -12.5,0 5,5 0,0 z"
         style="fill:#d40000;fill-rule:evenodd;stroke:#d40000;stroke-width:1pt;marker-start:none"
         transform="matrix(0.8,0,0,0.8,10,0)" />
    </marker>
    <marker
       inkscape:stockid="marker14168-6ql"
       orient="auto"
       refY="0"
       refX="0"
       id="marker14168-6ql"
       style="overflow:visible">
      <path
         inkscape:connector-curvature="0"
         id="path12819"
         d="M 0,0 5,-5 -12.5,0 5,5 0,0 z"
         style="fill:#d40000;fill-rule:evenodd;stroke:#d40000;stroke-width:1pt;marker-start:none"
         transform="matrix(-0.8,0,0,-0.8,-10,0)" />
    </marker>
    <marker
       inkscape:stockid="Arrow1Lstart-8qw"
       orient="auto"
       refY="0"
       refX="0"
       id="Arrow1Lstart-8qw"
       style="overflow:visible">
      <path
         inkscape:connector-curvature="0"
         id="path20274"
         d="M 0,0 5,-5 -12.5,0 5,5 0,0 z"
         style="fill:#d40000;fill-rule:evenodd;stroke:#d40000;stroke-width:1pt;marker-start:none"
         transform="matrix(0.8,0,0,0.8,10,0)" />
    </marker>
    <marker
       inkscape:stockid="marker14168-6m6"
       orient="auto"
       refY="0"
       refX="0"
       id="marker14168-6m6"
       style="overflow:visible">
      <path
         inkscape:connector-curvature="0"
         id="path20277"
         d="M 0,0 5,-5 -12.5,0 5,5 0,0 z"
         style="fill:#d40000;fill-rule:evenodd;stroke:#d40000;stroke-width:1pt;marker-start:none"
         transform="matrix(-0.8,0,0,-0.8,-10,0)" />
    </marker>
    <marker
       inkscape:stockid="Arrow2Lend"
       orient="auto"
       refY="0"
       refX="0"
       id="Arrow2Lend-4"
       style="overflow:visible">
      <path
         inkscape:connector-curvature="0"
         id="path4995-2"
         style="fill-rule:evenodd;stroke-width:0.625;stroke-linejoin:round"
         d="M 8.7185878,4.0337352 -2.2072895,0.01601326 8.7185884,-4.0017078 c -1.7454984,2.3720609 -1.7354408,5.6174519 -6e-7,8.035443 z"
         transform="matrix(-1.1,0,0,-1.1,-1.1,0)" />
    </marker>
    <marker
       inkscape:stockid="Arrow2Lend"
       orient="auto"
       refY="0"
       refX="0"
       id="Arrow2Lend-6"
       style="overflow:visible">
      <path
         inkscape:connector-curvature="0"
         id="path4995-7"
         style="fill-rule:evenodd;stroke-width:0.625;stroke-linejoin:round"
         d="M 8.7185878,4.0337352 -2.2072895,0.01601326 8.7185884,-4.0017078 c -1.7454984,2.3720609 -1.7354408,5.6174519 -6e-7,8.035443 z"
         transform="matrix(-1.1,0,0,-1.1,-1.1,0)" />
    </marker>
    <marker
       inkscape:stockid="Arrow2Lend"
       orient="auto"
       refY="0"
       refX="0"
       id="Arrow2Lend-3"
       style="overflow:visible">
      <path
         inkscape:connector-curvature="0"
         id="path4995-8"
         style="fill-rule:evenodd;stroke-width:0.625;stroke-linejoin:round"
         d="M 8.7185878,4.0337352 -2.2072895,0.01601326 8.7185884,-4.0017078 c -1.7454984,2.3720609 -1.7354408,5.6174519 -6e-7,8.035443 z"
         transform="matrix(-1.1,0,0,-1.1,-1.1,0)" />
    </marker>
    <marker
       inkscape:stockid="Arrow2Lend"
       orient="auto"
       refY="0"
       refX="0"
       id="Arrow2Lend-30"
       style="overflow:visible">
      <path
         inkscape:connector-curvature="0"
         id="path4995-9"
         style="fill-rule:evenodd;stroke-width:0.625;stroke-linejoin:round"
         d="M 8.7185878,4.0337352 -2.2072895,0.01601326 8.7185884,-4.0017078 c -1.7454984,2.3720609 -1.7354408,5.6174519 -6e-7,8.035443 z"
         transform="matrix(-1.1,0,0,-1.1,-1.1,0)" />
    </marker>
    <marker
       inkscape:stockid="Arrow2Lend"
       orient="auto"
       refY="0"
       refX="0"
       id="Arrow2Lend-5"
       style="overflow:visible">
      <path
         inkscape:connector-curvature="0"
         id="path4995-3"
         style="fill-rule:evenodd;stroke-width:0.625;stroke-linejoin:round"
         d="M 8.7185878,4.0337352 -2.2072895,0.01601326 8.7185884,-4.0017078 c -1.7454984,2.3720609 -1.7354408,5.6174519 -6e-7,8.035443 z"
         transform="matrix(-1.1,0,0,-1.1,-1.1,0)" />
    </marker>
    <marker
       inkscape:stockid="Arrow2Lend"
       orient="auto"
       refY="0"
       refX="0"
       id="Arrow2Lend-40"
       style="overflow:visible">
      <path
         inkscape:connector-curvature="0"
         id="path4995-39"
         style="fill-rule:evenodd;stroke-width:0.625;stroke-linejoin:round"
         d="M 8.7185878,4.0337352 -2.2072895,0.01601326 8.7185884,-4.0017078 c -1.7454984,2.3720609 -1.7354408,5.6174519 -6e-7,8.035443 z"
         transform="matrix(-1.1,0,0,-1.1,-1.1,0)" />
    </marker>
    <marker
       inkscape:stockid="Arrow2Lend"
       orient="auto"
       refY="0"
       refX="0"
       id="Arrow2Lend-53"
       style="overflow:visible">
      <path
         inkscape:connector-curvature="0"
         id="path4995-33"
         style="fill-rule:evenodd;stroke-width:0.625;stroke-linejoin:round"
         d="M 8.7185878,4.0337352 -2.2072895,0.01601326 8.7185884,-4.0017078 c -1.7454984,2.3720609 -1.7354408,5.6174519 -6e-7,8.035443 z"
         transform="matrix(-1.1,0,0,-1.1,-1.1,0)" />
    </marker>
    <marker
       inkscape:stockid="Arrow2Lend"
       orient="auto"
       refY="0"
       refX="0"
       id="Arrow2Lend-57"
       style="overflow:visible">
      <path
         inkscape:connector-curvature="0"
         id="path4995-0"
         style="fill-rule:evenodd;stroke-width:0.625;stroke-linejoin:round"
         d="M 8.7185878,4.0337352 -2.2072895,0.01601326 8.7185884,-4.0017078 c -1.7454984,2.3720609 -1.7354408,5.6174519 -6e-7,8.035443 z"
         transform="matrix(-1.1,0,0,-1.1,-1.1,0)" />
    </marker>
    <marker
       inkscape:stockid="Arrow2Lend"
       orient="auto"
       refY="0"
       refX="0"
       id="Arrow2Lend-2"
       style="overflow:visible">
      <path
         inkscape:connector-curvature="0"
         id="path4995-31"
         style="fill-rule:evenodd;stroke-width:0.625;stroke-linejoin:round"
         d="M 8.7185878,4.0337352 -2.2072895,0.01601326 8.7185884,-4.0017078 c -1.7454984,2.3720609 -1.7354408,5.6174519 -6e-7,8.035443 z"
         transform="matrix(-1.1,0,0,-1.1,-1.1,0)" />
    </marker>
    <marker
       inkscape:stockid="Arrow2Lend"
       orient="auto"
       refY="0"
       refX="0"
       id="Arrow2Lend-64"
       style="overflow:visible">
      <path
         inkscape:connector-curvature="0"
         id="path4995-29"
         style="fill-rule:evenodd;stroke-width:0.625;stroke-linejoin:round"
         d="M 8.7185878,4.0337352 -2.2072895,0.01601326 8.7185884,-4.0017078 c -1.7454984,2.3720609 -1.7354408,5.6174519 -6e-7,8.035443 z"
         transform="matrix(-1.1,0,0,-1.1,-1.1,0)" />
    </marker>
  </defs>
  <sodipodi:namedview
     id="base"
     pagecolor="#ffffff"
     bordercolor="#666666"
     borderopacity="1.0"
     inkscape:pageopacity="0.0"
     inkscape:pageshadow="2"
     inkscape:zoom="3.959798"
     inkscape:cx="157.24927"
     inkscape:cy="985.09055"
     inkscape:document-units="px"
     inkscape:current-layer="layer1"
     showgrid="false"
     inkscape:window-width="1377"
     inkscape:window-height="1143"
     inkscape:window-x="968"
     inkscape:window-y="119"
     inkscape:window-maximized="0" />
  <metadata
     id="metadata3504">
    <rdf:RDF>
      <cc:Work
         rdf:about="">
        <dc:format>image/svg+xml</dc:format>
        <dc:type
           rdf:resource="http://purl.org/dc/dcmitype/StillImage" />
        <dc:title />
      </cc:Work>
    </rdf:RDF>
  </metadata>
  <g
     inkscape:label="Calque 1"
     inkscape:groupmode="layer"
     id="layer1">
    <rect
       ry="0"
       y="44.409054"
       x="34.948952"
       height="27.960215"
       width="222.94934"
       id="rect6431-1-4-9-4-3-3-2-4-9-0-3"
       style="fill:#ffffff;fill-opacity:1;fill-rule:nonzero;stroke:#000000;stroke-width:0.42747921;stroke-miterlimit:4;stroke-dasharray:none;stroke-opacity:1" />
    <flowRoot
       transform="matrix(1.3660348,0,0,1.4072149,-137.8575,-1005.6942)"
       style="font-style:normal;font-weight:normal;font-size:40px;line-height:125%;font-family:Sans;letter-spacing:0px;word-spacing:0px;fill:#d40000;fill-opacity:1;stroke:none"
       id="flowRoot10107-0-6-9-91-7-0-7-3-3"
       xml:space="preserve"><flowRegion
         id="flowRegion10109-1-4-1-7-1-5-1-5-6"><rect
           style="fill:#d40000;fill-opacity:1"
           y="780.99219"
           x="140"
           height="12.041486"
           width="48.543797"
           id="rect10111-9-4-5-44-6-2-2-4-5" /></flowRegion><flowPara
         id="flowPara5780-1-5-0-5-1-5-8"
         style="font-size:3.60627556px;text-align:justify;text-anchor:start;fill:#000000;fill-opacity:1">Thread 0</flowPara></flowRoot>    <path
       inkscape:connector-curvature="0"
       id="path10538-6-9"
       d="m 35.193863,58.526143 222.927637,0"
       style="fill:none;stroke:#000000;stroke-width:0.40135008;stroke-linecap:butt;stroke-linejoin:miter;stroke-miterlimit:4;stroke-dasharray:none;stroke-dashoffset:0;stroke-opacity:1" />
    <flowRoot
       transform="matrix(1.3660348,0,0,1.4072149,-17.749116,-1055.1669)"
       style="font-style:normal;font-weight:normal;font-size:40px;line-height:125%;font-family:Sans;letter-spacing:0px;word-spacing:0px;fill:#000000;fill-opacity:1;stroke:none"
       id="flowRoot10107-0-6-9-91-7-0-7-8-5-2-3"
       xml:space="preserve"><flowRegion
         id="flowRegion10109-1-4-1-7-1-5-1-0-9-8-0"><rect
           style="fill:#000000;fill-opacity:1"
           y="780.99219"
           x="140"
           height="8.8144379"
           width="20.121655"
           id="rect10111-9-4-5-44-6-2-2-2-8-0-6" /></flowRegion><flowPara
         id="flowPara5780-1-5-0-5-1-4-7-3-6"
         style="font-size:5.40941334px;text-align:justify;text-anchor:start;fill:#000000;fill-opacity:1">...</flowPara></flowRoot>    <flowRoot
       transform="matrix(1.3660348,0,0,1.4072149,-17.358066,-1040.8796)"
       style="font-style:normal;font-weight:normal;font-size:40px;line-height:125%;font-family:Sans;letter-spacing:0px;word-spacing:0px;fill:#000000;fill-opacity:1;stroke:none"
       id="flowRoot10107-0-6-9-91-7-0-7-8-5-2-3-6"
       xml:space="preserve"><flowRegion
         id="flowRegion10109-1-4-1-7-1-5-1-0-9-8-0-6"><rect
           style="fill:#000000;fill-opacity:1"
           y="780.99219"
           x="140"
           height="8.8144379"
           width="20.121655"
           id="rect10111-9-4-5-44-6-2-2-2-8-0-6-9" /></flowRegion><flowPara
         id="flowPara5780-1-5-0-5-1-4-7-3-6-0"
         style="font-size:5.40941334px;text-align:justify;text-anchor:start;fill:#000000;fill-opacity:1">...</flowPara></flowRoot>    <path
       inkscape:connector-curvature="0"
       id="path10538-6-9-9-4-1-0"
       d="M 93.634952,57.941792 93.587728,44.61718"
       style="fill:none;stroke:#000000;stroke-width:0.21707027;stroke-linecap:butt;stroke-linejoin:miter;stroke-miterlimit:4;stroke-dasharray:0.43414054, 0.86828107;stroke-dashoffset:0;stroke-opacity:1" />
    <path
       inkscape:connector-curvature="0"
       id="path10538-6-9-9-4-1-0-5"
       d="M 93.853205,72.498811 93.805915,58.419322"
       style="fill:none;stroke:#000000;stroke-width:0.41728613;stroke-linecap:butt;stroke-linejoin:miter;stroke-miterlimit:4;stroke-dasharray:none;stroke-dashoffset:0;stroke-opacity:1" />
    <path
       inkscape:connector-curvature="0"
       id="path10538-6-9-9-4-1-0-3"
       d="m 153.00634,58.734402 -0.0472,-13.577154"
       style="fill:none;stroke:#000000;stroke-width:0.21910182;stroke-linecap:butt;stroke-linejoin:miter;stroke-miterlimit:4;stroke-dasharray:0.43820364, 0.87640728;stroke-dashoffset:0;stroke-opacity:1" />
    <path
       inkscape:connector-curvature="0"
       id="path10538-6-9-9-4-1-0-5-9"
       d="m 153.22457,72.534066 -0.0472,-13.827474"
       style="fill:none;stroke:#000000;stroke-width:0.41337842;stroke-linecap:butt;stroke-linejoin:miter;stroke-miterlimit:4;stroke-dasharray:none;stroke-dashoffset:0;stroke-opacity:1" />
    <path
       inkscape:connector-curvature="0"
       id="path10538-6-9-9-4-1-0-9"
       d="m 198.79407,58.124522 -0.0473,-13.829288"
       style="fill:none;stroke:#000000;stroke-width:0.22124174;stroke-linecap:butt;stroke-linejoin:miter;stroke-miterlimit:4;stroke-dasharray:0.44248349, 0.88496699;stroke-dashoffset:0;stroke-opacity:1" />
    <path
       inkscape:connector-curvature="0"
       id="path10538-6-9-9-4-1-0-5-5"
       d="m 199.01231,72.176632 -0.0473,-13.574347"
       style="fill:none;stroke:#000000;stroke-width:0.40981594;stroke-linecap:butt;stroke-linejoin:miter;stroke-miterlimit:4;stroke-dasharray:none;stroke-dashoffset:0;stroke-opacity:1" />
    <ellipse
       style="fill:none;fill-opacity:1;stroke:#000000;stroke-width:0.29034972;stroke-miterlimit:4;stroke-dasharray:none;stroke-dashoffset:0;stroke-opacity:0.98717945"
       id="path4704"
       cx="64.207184"
       cy="96.539909"
       rx="16.749586"
       ry="7.1358271" />
    <flowRoot
       transform="matrix(0,-0.61948269,0.78010097,0,-583.35546,163.72429)"
       style="font-style:normal;font-weight:normal;font-size:40px;line-height:125%;font-family:Sans;letter-spacing:0px;word-spacing:0px;fill:#d40000;fill-opacity:1;stroke:none"
       id="flowRoot10107-0-6-9-91-7-0-7-3-3-6"
       xml:space="preserve"><flowRegion
         id="flowRegion10109-1-4-1-7-1-5-1-5-6-0"><rect
           style="fill:#d40000;fill-opacity:1"
           y="780.99219"
           x="140"
           height="7.2194157"
           width="60.831703"
           id="rect10111-9-4-5-44-6-2-2-4-5-95" /></flowRegion><flowPara
         id="flowPara5780-1-5-0-5-1-5-8-33"
         style="font-size:5.40941334px;text-align:justify;text-anchor:start;fill:#000000;fill-opacity:1">Global Address Space</flowPara></flowRoot>    <flowRoot
       transform="matrix(1.3660348,0,0,1.4072149,-73.775303,-1005.6183)"
       style="font-style:normal;font-weight:normal;font-size:40px;line-height:125%;font-family:Sans;letter-spacing:0px;word-spacing:0px;fill:#d40000;fill-opacity:1;stroke:none"
       id="flowRoot10107-0-6-9-91-7-0-7-3-3-63"
       xml:space="preserve"><flowRegion
         id="flowRegion10109-1-4-1-7-1-5-1-5-6-3"><rect
           style="fill:#d40000;fill-opacity:1"
           y="780.99219"
           x="140"
           height="12.041486"
           width="48.543797"
           id="rect10111-9-4-5-44-6-2-2-4-5-3" /></flowRegion><flowPara
         id="flowPara5780-1-5-0-5-1-5-8-5"
         style="font-size:3.60627556px;text-align:justify;text-anchor:start;fill:#000000;fill-opacity:1">Thread 1</flowPara></flowRoot>    <ellipse
       style="fill:none;fill-opacity:1;stroke:#000000;stroke-width:0.29034972;stroke-miterlimit:4;stroke-dasharray:none;stroke-dashoffset:0;stroke-opacity:0.98717945"
       id="path4704-2"
       cx="128.28937"
       cy="96.615768"
       rx="16.749586"
       ry="7.1358271" />
    <flowRoot
       transform="matrix(1.3660348,0,0,1.4072149,25.805939,-1006.1234)"
       style="font-style:normal;font-weight:normal;font-size:40px;line-height:125%;font-family:Sans;letter-spacing:0px;word-spacing:0px;fill:#d40000;fill-opacity:1;stroke:none"
       id="flowRoot10107-0-6-9-91-7-0-7-3-3-1"
       xml:space="preserve"><flowRegion
         id="flowRegion10109-1-4-1-7-1-5-1-5-6-4"><rect
           style="fill:#d40000;fill-opacity:1"
           y="780.99219"
           x="140"
           height="6.6577177"
           width="32.090408"
           id="rect10111-9-4-5-44-6-2-2-4-5-2" /></flowRegion><flowPara
         id="flowPara5780-1-5-0-5-1-5-8-7"
         style="font-size:3.60627556px;text-align:justify;text-anchor:start;fill:#000000;fill-opacity:1">Thread N-1</flowPara></flowRoot>    <ellipse
       style="fill:none;fill-opacity:1;stroke:#000000;stroke-width:0.29034972;stroke-miterlimit:4;stroke-dasharray:none;stroke-dashoffset:0;stroke-opacity:0.98717945"
       id="path4704-7"
       cx="229.87062"
       cy="96.11068"
       rx="16.749586"
       ry="7.1358271" />
    <flowRoot
       transform="matrix(1.3660348,0,0,1.4072149,-130.41641,-1051.1417)"
       style="font-style:normal;font-weight:normal;font-size:40px;line-height:125%;font-family:Sans;letter-spacing:0px;word-spacing:0px;fill:#d40000;fill-opacity:1;stroke:none"
       id="flowRoot10107-0-6-9-91-7-0-7-3-3-9"
       xml:space="preserve"><flowRegion
         id="flowRegion10109-1-4-1-7-1-5-1-5-6-1"><rect
           style="fill:#d40000;fill-opacity:1"
           y="780.99219"
           x="140"
           height="8.0933943"
           width="24.510761"
           id="rect10111-9-4-5-44-6-2-2-4-5-0" /></flowRegion><flowPara
         id="flowPara5780-1-5-0-5-1-5-8-2"
         style="font-size:3.60627556px;text-align:justify;text-anchor:start;fill:#000000;fill-opacity:1">SA<flowSpan
   style="font-size:46.88158333%;baseline-shift:sub"
   id="flowSpan3536">0</flowSpan></flowPara></flowRoot>    <flowRoot
       transform="matrix(1.3660348,0,0,1.4072149,-130.53234,-1036.7917)"
       style="font-style:normal;font-weight:normal;font-size:40px;line-height:125%;font-family:Sans;letter-spacing:0px;word-spacing:0px;fill:#d40000;fill-opacity:1;stroke:none"
       id="flowRoot10107-0-6-9-91-7-0-7-3-3-9-7"
       xml:space="preserve"><flowRegion
         id="flowRegion10109-1-4-1-7-1-5-1-5-6-1-3"><rect
           style="fill:#d40000;fill-opacity:1"
           y="780.99219"
           x="140"
           height="8.0933943"
           width="24.510761"
           id="rect10111-9-4-5-44-6-2-2-4-5-0-1" /></flowRegion><flowPara
         id="flowPara5780-1-5-0-5-1-5-8-2-6"
         style="font-size:3.60627556px;text-align:justify;text-anchor:start;fill:#000000;fill-opacity:1">LA<flowSpan
   style="font-size:46.88158333%;baseline-shift:sub"
   id="flowSpan3538">0</flowSpan></flowPara></flowRoot>    <flowRoot
       transform="matrix(1.3660348,0,0,1.4072149,-71.328648,-1051.2736)"
       style="font-style:normal;font-weight:normal;font-size:40px;line-height:125%;font-family:Sans;letter-spacing:0px;word-spacing:0px;fill:#d40000;fill-opacity:1;stroke:none"
       id="flowRoot10107-0-6-9-91-7-0-7-3-3-9-9"
       xml:space="preserve"><flowRegion
         id="flowRegion10109-1-4-1-7-1-5-1-5-6-1-8"><rect
           style="fill:#d40000;fill-opacity:1"
           y="780.99219"
           x="140"
           height="8.0933943"
           width="24.510761"
           id="rect10111-9-4-5-44-6-2-2-4-5-0-2" /></flowRegion><flowPara
         id="flowPara5780-1-5-0-5-1-5-8-2-8"
         style="font-size:3.60627556px;text-align:justify;text-anchor:start;fill:#000000;fill-opacity:1">SA<flowSpan
   style="font-size:46.88158333%;baseline-shift:sub"
   id="flowSpan3536-7">1</flowSpan></flowPara></flowRoot>    <flowRoot
       transform="matrix(1.3660348,0,0,1.4072149,-71.444578,-1036.9236)"
       style="font-style:normal;font-weight:normal;font-size:40px;line-height:125%;font-family:Sans;letter-spacing:0px;word-spacing:0px;fill:#d40000;fill-opacity:1;stroke:none"
       id="flowRoot10107-0-6-9-91-7-0-7-3-3-9-7-7"
       xml:space="preserve"><flowRegion
         id="flowRegion10109-1-4-1-7-1-5-1-5-6-1-3-9"><rect
           style="fill:#d40000;fill-opacity:1"
           y="780.99219"
           x="140"
           height="8.0933943"
           width="24.510761"
           id="rect10111-9-4-5-44-6-2-2-4-5-0-1-2" /></flowRegion><flowPara
         id="flowPara5780-1-5-0-5-1-5-8-2-6-6"
         style="font-size:3.60627556px;text-align:justify;text-anchor:start;fill:#000000;fill-opacity:1">LA<flowSpan
   style="font-size:46.88158333%;baseline-shift:sub"
   id="flowSpan3538-2">1</flowSpan></flowPara></flowRoot>    <flowRoot
       transform="matrix(1.3660348,0,0,1.4072149,34.505133,-1051.5261)"
       style="font-style:normal;font-weight:normal;font-size:40px;line-height:125%;font-family:Sans;letter-spacing:0px;word-spacing:0px;fill:#d40000;fill-opacity:1;stroke:none"
       id="flowRoot10107-0-6-9-91-7-0-7-3-3-9-91"
       xml:space="preserve"><flowRegion
         id="flowRegion10109-1-4-1-7-1-5-1-5-6-1-37"><rect
           style="fill:#d40000;fill-opacity:1"
           y="780.99219"
           x="140"
           height="8.0933943"
           width="24.510761"
           id="rect10111-9-4-5-44-6-2-2-4-5-0-19" /></flowRegion><flowPara
         id="flowPara5780-1-5-0-5-1-5-8-2-7"
         style="font-size:3.60627556px;text-align:justify;text-anchor:start;fill:#000000;fill-opacity:1">SA<flowSpan
   style="font-size:46.88158333%;baseline-shift:sub"
   id="flowSpan3536-8">N-1</flowSpan></flowPara></flowRoot>    <flowRoot
       transform="matrix(1.3660348,0,0,1.4072149,34.389203,-1037.1761)"
       style="font-style:normal;font-weight:normal;font-size:40px;line-height:125%;font-family:Sans;letter-spacing:0px;word-spacing:0px;fill:#d40000;fill-opacity:1;stroke:none"
       id="flowRoot10107-0-6-9-91-7-0-7-3-3-9-7-9"
       xml:space="preserve"><flowRegion
         id="flowRegion10109-1-4-1-7-1-5-1-5-6-1-3-97"><rect
           style="fill:#d40000;fill-opacity:1"
           y="780.99219"
           x="140"
           height="8.0933943"
           width="24.510761"
           id="rect10111-9-4-5-44-6-2-2-4-5-0-1-24" /></flowRegion><flowPara
         id="flowPara5780-1-5-0-5-1-5-8-2-6-4"
         style="font-size:3.60627556px;text-align:justify;text-anchor:start;fill:#000000;fill-opacity:1">LA<flowSpan
   style="font-size:46.88158333%;baseline-shift:sub"
   id="flowSpan3538-7">N-1</flowSpan></flowPara></flowRoot>    <rect
       style="fill:none;fill-opacity:1;stroke:#000000;stroke-width:0.36424029;stroke-miterlimit:4;stroke-dasharray:0.72848069, 1.45696137;stroke-dashoffset:0;stroke-opacity:0.98717945"
       id="rect5022"
       width="55.669155"
       height="31.930563"
       x="36.416077"
       y="42.028023"
       ry="2.6339908" />
    <flowRoot
       transform="matrix(1.3660348,0,0,1.4072149,-130.96826,-1064.8067)"
       style="font-style:normal;font-weight:normal;font-size:40px;line-height:125%;font-family:Sans;letter-spacing:0px;word-spacing:0px;fill:#d40000;fill-opacity:1;stroke:none"
       id="flowRoot10107-0-6-9-91-7-0-7-3-3-9-75"
       xml:space="preserve"><flowRegion
         id="flowRegion10109-1-4-1-7-1-5-1-5-6-1-6"><rect
           style="fill:#d40000;fill-opacity:1"
           y="780.99219"
           x="140"
           height="8.0933943"
           width="24.510761"
           id="rect10111-9-4-5-44-6-2-2-4-5-0-7" /></flowRegion><flowPara
         id="flowPara5780-1-5-0-5-1-5-8-2-9"
         style="font-size:3.60627556px;text-align:justify;text-anchor:start;fill:#000000;fill-opacity:1">MA<flowSpan
   style="font-size:46.88158333%;baseline-shift:sub"
   id="flowSpan3536-78">0</flowSpan></flowPara></flowRoot>    <rect
       style="fill:none;fill-opacity:1;stroke:#000000;stroke-width:0.36424029;stroke-miterlimit:4;stroke-dasharray:0.72848069, 1.45696137;stroke-dashoffset:0;stroke-opacity:0.98717945"
       id="rect5022-8"
       width="55.669155"
       height="31.930563"
       x="95.40403"
       y="42.258835"
       ry="2.6339908" />
    <flowRoot
       transform="matrix(1.3660348,0,0,1.4072149,-71.980305,-1064.5759)"
       style="font-style:normal;font-weight:normal;font-size:40px;line-height:125%;font-family:Sans;letter-spacing:0px;word-spacing:0px;fill:#d40000;fill-opacity:1;stroke:none"
       id="flowRoot10107-0-6-9-91-7-0-7-3-3-9-75-0"
       xml:space="preserve"><flowRegion
         id="flowRegion10109-1-4-1-7-1-5-1-5-6-1-6-3"><rect
           style="fill:#d40000;fill-opacity:1"
           y="780.99219"
           x="140"
           height="8.0933943"
           width="24.510761"
           id="rect10111-9-4-5-44-6-2-2-4-5-0-7-7" /></flowRegion><flowPara
         id="flowPara5780-1-5-0-5-1-5-8-2-9-7"
         style="font-size:3.60627556px;text-align:justify;text-anchor:start;fill:#000000;fill-opacity:1">MA<flowSpan
   style="font-size:46.88158333%;baseline-shift:sub"
   id="flowSpan3536-78-9">1</flowSpan></flowPara></flowRoot>    <rect
       style="fill:none;fill-opacity:1;stroke:#000000;stroke-width:0.36424029;stroke-miterlimit:4;stroke-dasharray:0.72848069, 1.45696137;stroke-dashoffset:0;stroke-opacity:0.98717945"
       id="rect5022-8-7"
       width="55.669155"
       height="31.930563"
       x="200.71242"
       y="42.511375"
       ry="2.6339908" />
    <flowRoot
       transform="matrix(1.3660348,0,0,1.4072149,33.83318,-1064.3233)"
       style="font-style:normal;font-weight:normal;font-size:40px;line-height:125%;font-family:Sans;letter-spacing:0px;word-spacing:0px;fill:#d40000;fill-opacity:1;stroke:none"
       id="flowRoot10107-0-6-9-91-7-0-7-3-3-9-75-0-2"
       xml:space="preserve"><flowRegion
         id="flowRegion10109-1-4-1-7-1-5-1-5-6-1-6-3-6"><rect
           style="fill:#d40000;fill-opacity:1"
           y="780.99219"
           x="140"
           height="8.0933943"
           width="24.510761"
           id="rect10111-9-4-5-44-6-2-2-4-5-0-7-7-2" /></flowRegion><flowPara
         id="flowPara5780-1-5-0-5-1-5-8-2-9-7-8"
         style="font-size:3.60627556px;text-align:justify;text-anchor:start;fill:#000000;fill-opacity:1">MA<flowSpan
   style="font-size:46.88158333%;baseline-shift:sub"
   id="flowSpan3536-78-9-8">N-1</flowSpan></flowPara></flowRoot>    <rect
       ry="0"
       y="77.32103"
       x="35.096516"
       height="8.5691776"
       width="57.8438"
       id="rect6431-1-4-9-4-3-3-2-4-9-0-3-7"
       style="fill:#ffffff;fill-opacity:1;fill-rule:nonzero;stroke:#000000;stroke-width:0.12054233;stroke-miterlimit:4;stroke-dasharray:none;stroke-opacity:1" />
    <rect
       ry="0"
       y="77.068489"
       x="94.821785"
       height="8.5691776"
       width="57.8438"
       id="rect6431-1-4-9-4-3-3-2-4-9-0-3-7-0"
       style="fill:#ffffff;fill-opacity:1;fill-rule:nonzero;stroke:#000000;stroke-width:0.12054233;stroke-miterlimit:4;stroke-dasharray:none;stroke-opacity:1" />
    <rect
       ry="0"
       y="77.068489"
       x="200.38272"
       height="8.5691776"
       width="57.8438"
       id="rect6431-1-4-9-4-3-3-2-4-9-0-3-7-8"
       style="fill:#ffffff;fill-opacity:1;fill-rule:nonzero;stroke:#000000;stroke-width:0.12054233;stroke-miterlimit:4;stroke-dasharray:none;stroke-opacity:1" />
    <flowRoot
       transform="matrix(1.3660348,0,0,1.4072149,-136.16331,-1020.8986)"
       style="font-style:normal;font-weight:normal;font-size:40px;line-height:125%;font-family:Sans;letter-spacing:0px;word-spacing:0px;fill:#d40000;fill-opacity:1;stroke:none"
       id="flowRoot10107-0-6-9-91-7-0-7-3-3-9-7-72"
       xml:space="preserve"><flowRegion
         id="flowRegion10109-1-4-1-7-1-5-1-5-6-1-3-7"><rect
           style="fill:#d40000;fill-opacity:1"
           y="780.99219"
           x="140"
           height="5.5809503"
           width="16.746239"
           id="rect10111-9-4-5-44-6-2-2-4-5-0-1-20" /></flowRegion><flowPara
         id="flowPara5780-1-5-0-5-1-5-8-2-6-47"
         style="font-size:3.60627556px;text-align:justify;text-anchor:start;fill:#000000;fill-opacity:1">register<flowSpan
   style="font-size:46.88158333%;baseline-shift:sub"
   id="flowSpan3538-9" /></flowPara></flowRoot>    <flowRoot
       transform="matrix(1.3660348,0,0,1.4072149,-76.213735,-1021.0765)"
       style="font-style:normal;font-weight:normal;font-size:40px;line-height:125%;font-family:Sans;letter-spacing:0px;word-spacing:0px;fill:#d40000;fill-opacity:1;stroke:none"
       id="flowRoot10107-0-6-9-91-7-0-7-3-3-9-7-72-3"
       xml:space="preserve"><flowRegion
         id="flowRegion10109-1-4-1-7-1-5-1-5-6-1-3-7-1"><rect
           style="fill:#d40000;fill-opacity:1"
           y="780.99219"
           x="140"
           height="5.5809503"
           width="16.746239"
           id="rect10111-9-4-5-44-6-2-2-4-5-0-1-20-3" /></flowRegion><flowPara
         id="flowPara5780-1-5-0-5-1-5-8-2-6-47-2"
         style="font-size:3.60627556px;text-align:justify;text-anchor:start;fill:#000000;fill-opacity:1">register<flowSpan
   style="font-size:46.88158333%;baseline-shift:sub"
   id="flowSpan3538-9-2" /></flowPara></flowRoot>    <flowRoot
       transform="matrix(1.3660348,0,0,1.4072149,28.589589,-1021.329)"
       style="font-style:normal;font-weight:normal;font-size:40px;line-height:125%;font-family:Sans;letter-spacing:0px;word-spacing:0px;fill:#d40000;fill-opacity:1;stroke:none"
       id="flowRoot10107-0-6-9-91-7-0-7-3-3-9-7-72-0"
       xml:space="preserve"><flowRegion
         id="flowRegion10109-1-4-1-7-1-5-1-5-6-1-3-7-3"><rect
           style="fill:#d40000;fill-opacity:1"
           y="780.99219"
           x="140"
           height="5.5809503"
           width="16.746239"
           id="rect10111-9-4-5-44-6-2-2-4-5-0-1-20-6" /></flowRegion><flowPara
         id="flowPara5780-1-5-0-5-1-5-8-2-6-47-21"
         style="font-size:3.60627556px;text-align:justify;text-anchor:start;fill:#000000;fill-opacity:1">register<flowSpan
   style="font-size:46.88158333%;baseline-shift:sub"
   id="flowSpan3538-9-8" /></flowPara></flowRoot>  </g>
</svg>
