# total  - weak scaling - input: 5 4 4 4 …
# B  NB  OPT
16	.03945	.03948	.04096		
32	.05793	.05199	.05498	
64	.09849	.06588	.06975
128	.11403	.06900	.06885	
256	.12083	.07944	.08219	
512	.14499	.08531	.08418
1024	.31162	.13080	.09332
2048	.15351	.09177	.08621



# total  - weak scaling - input: 6  2 2 2 …
# B  NB  OPT
#16	.02360	.02346	.02384		
#32	.54117	.55481	.52238	
#64	.49386	.54581	.55878
#128	.57414	.55044	.50396
#256	.55066	.51681	.47939
#512	.79629	.54997	.50479	
#1024	.65208	.49541	.50174	
#2048	.67504	.52081	.48108