<?xml version="1.0" encoding="UTF-8" standalone="no"?>
<!-- Created with Inkscape (http://www.inkscape.org/) -->

<svg
   xmlns:dc="http://purl.org/dc/elements/1.1/"
   xmlns:cc="http://creativecommons.org/ns#"
   xmlns:rdf="http://www.w3.org/1999/02/22-rdf-syntax-ns#"
   xmlns:svg="http://www.w3.org/2000/svg"
   xmlns="http://www.w3.org/2000/svg"
   xmlns:sodipodi="http://sodipodi.sourceforge.net/DTD/sodipodi-0.dtd"
   xmlns:inkscape="http://www.inkscape.org/namespaces/inkscape"
   width="210mm"
   height="297mm"
   id="svg3499"
   version="1.1"
   inkscape:version="0.91 r13725"
   sodipodi:docname="Intrum.svg">
  <defs
     id="defs3501">
    <marker
       inkscape:stockid="Arrow1Send"
       orient="auto"
       refY="0.0"
       refX="0.0"
       id="Arrow1Send"
       style="overflow:visible;">
      <path
         id="path4144"
         d="M 0.0,0.0 L 5.0,-5.0 L -12.5,0.0 L 5.0,5.0 L 0.0,0.0 z "
         style="fill-rule:evenodd;stroke:#000000;stroke-width:1.0pt;"
         transform="scale(0.2) rotate(180) translate(6,0)" />
    </marker>
    <marker
       inkscape:stockid="Arrow2Send"
       orient="auto"
       refY="0.0"
       refX="0.0"
       id="Arrow2Send"
       style="overflow:visible;">
      <path
         id="path4162"
         style="fill-rule:evenodd;stroke-width:0.62500000;stroke-linejoin:round;"
         d="M 8.7185878,4.0337352 L -2.2072895,0.016013256 L 8.7185884,-4.0017078 C 6.9730900,-1.6296469 6.9831476,1.6157441 8.7185878,4.0337352 z "
         transform="scale(0.3) rotate(180) translate(-2.3,0)" />
    </marker>
    <marker
       inkscape:stockid="Arrow1Sstart"
       orient="auto"
       refY="0.0"
       refX="0.0"
       id="Arrow1Sstart"
       style="overflow:visible">
      <path
         id="path4141"
         d="M 0.0,0.0 L 5.0,-5.0 L -12.5,0.0 L 5.0,5.0 L 0.0,0.0 z "
         style="fill-rule:evenodd;stroke:#000000;stroke-width:1.0pt"
         transform="scale(0.2) translate(6,0)" />
    </marker>
    <marker
       inkscape:stockid="Arrow1Lend"
       orient="auto"
       refY="0.0"
       refX="0.0"
       id="Arrow1Lend"
       style="overflow:visible;">
      <path
         id="path4213"
         d="M 0.0,0.0 L 5.0,-5.0 L -12.5,0.0 L 5.0,5.0 L 0.0,0.0 z "
         style="fill-rule:evenodd;stroke:#000000;stroke-width:1.0pt;"
         transform="scale(0.8) rotate(180) translate(12.5,0)" />
    </marker>
    <marker
       inkscape:stockid="DotL"
       orient="auto"
       refY="0.0"
       refX="0.0"
       id="DotL"
       style="overflow:visible">
      <path
         id="path4271"
         d="M -2.5,-1.0 C -2.5,1.7600000 -4.7400000,4.0 -7.5,4.0 C -10.260000,4.0 -12.5,1.7600000 -12.5,-1.0 C -12.5,-3.7600000 -10.260000,-6.0 -7.5,-6.0 C -4.7400000,-6.0 -2.5,-3.7600000 -2.5,-1.0 z "
         style="fill-rule:evenodd;stroke:#000000;stroke-width:1.0pt"
         transform="scale(0.8) translate(7.4, 1)" />
    </marker>
    <marker
       inkscape:stockid="Tail"
       orient="auto"
       refY="0.0"
       refX="0.0"
       id="Tail"
       style="overflow:visible">
      <g
         id="g4246"
         transform="scale(-1.2)">
        <path
           id="path4248"
           d="M -3.8048674,-3.9585227 L 0.54352094,0"
           style="fill:none;fill-rule:evenodd;stroke:#000000;stroke-width:0.8;stroke-linecap:round" />
        <path
           id="path4250"
           d="M -1.2866832,-3.9585227 L 3.0617053,0"
           style="fill:none;fill-rule:evenodd;stroke:#000000;stroke-width:0.8;stroke-linecap:round" />
        <path
           id="path4252"
           d="M 1.3053582,-3.9585227 L 5.6537466,0"
           style="fill:none;fill-rule:evenodd;stroke:#000000;stroke-width:0.8;stroke-linecap:round" />
        <path
           id="path4254"
           d="M -3.8048674,4.1775838 L 0.54352094,0.21974226"
           style="fill:none;fill-rule:evenodd;stroke:#000000;stroke-width:0.8;stroke-linecap:round" />
        <path
           id="path4256"
           d="M -1.2866832,4.1775838 L 3.0617053,0.21974226"
           style="fill:none;fill-rule:evenodd;stroke:#000000;stroke-width:0.8;stroke-linecap:round" />
        <path
           id="path4258"
           d="M 1.3053582,4.1775838 L 5.6537466,0.21974226"
           style="fill:none;fill-rule:evenodd;stroke:#000000;stroke-width:0.8;stroke-linecap:round" />
      </g>
    </marker>
    <marker
       inkscape:stockid="Arrow1Lstart"
       orient="auto"
       refY="0.0"
       refX="0.0"
       id="Arrow1Lstart"
       style="overflow:visible">
      <path
         id="path4210"
         d="M 0.0,0.0 L 5.0,-5.0 L -12.5,0.0 L 5.0,5.0 L 0.0,0.0 z "
         style="fill-rule:evenodd;stroke:#000000;stroke-width:1.0pt"
         transform="scale(0.8) translate(12.5,0)" />
    </marker>
    <marker
       inkscape:stockid="Arrow2Lend"
       orient="auto"
       refY="0.0"
       refX="0.0"
       id="Arrow2Lend"
       style="overflow:visible;">
      <path
         id="path4995"
         style="fill-rule:evenodd;stroke-width:0.62500000;stroke-linejoin:round;"
         d="M 8.7185878,4.0337352 L -2.2072895,0.016013256 L 8.7185884,-4.0017078 C 6.9730900,-1.6296469 6.9831476,1.6157441 8.7185878,4.0337352 z "
         transform="scale(1.1) rotate(180) translate(1,0)" />
    </marker>
    <marker
       inkscape:stockid="Arrow1Lstart-80y"
       orient="auto"
       refY="0"
       refX="0"
       id="Arrow1Lstart-80y"
       style="overflow:visible">
      <path
         inkscape:connector-curvature="0"
         id="path12816"
         d="M 0,0 5,-5 -12.5,0 5,5 0,0 z"
         style="fill:#d40000;fill-rule:evenodd;stroke:#d40000;stroke-width:1pt;marker-start:none"
         transform="matrix(0.8,0,0,0.8,10,0)" />
    </marker>
    <marker
       inkscape:stockid="marker14168-6ql"
       orient="auto"
       refY="0"
       refX="0"
       id="marker14168-6ql"
       style="overflow:visible">
      <path
         inkscape:connector-curvature="0"
         id="path12819"
         d="M 0,0 5,-5 -12.5,0 5,5 0,0 z"
         style="fill:#d40000;fill-rule:evenodd;stroke:#d40000;stroke-width:1pt;marker-start:none"
         transform="matrix(-0.8,0,0,-0.8,-10,0)" />
    </marker>
    <marker
       inkscape:stockid="Arrow1Lstart-8qw"
       orient="auto"
       refY="0"
       refX="0"
       id="Arrow1Lstart-8qw"
       style="overflow:visible">
      <path
         inkscape:connector-curvature="0"
         id="path20274"
         d="M 0,0 5,-5 -12.5,0 5,5 0,0 z"
         style="fill:#d40000;fill-rule:evenodd;stroke:#d40000;stroke-width:1pt;marker-start:none"
         transform="matrix(0.8,0,0,0.8,10,0)" />
    </marker>
    <marker
       inkscape:stockid="marker14168-6m6"
       orient="auto"
       refY="0"
       refX="0"
       id="marker14168-6m6"
       style="overflow:visible">
      <path
         inkscape:connector-curvature="0"
         id="path20277"
         d="M 0,0 5,-5 -12.5,0 5,5 0,0 z"
         style="fill:#d40000;fill-rule:evenodd;stroke:#d40000;stroke-width:1pt;marker-start:none"
         transform="matrix(-0.8,0,0,-0.8,-10,0)" />
    </marker>
    <marker
       inkscape:stockid="Arrow2Lend"
       orient="auto"
       refY="0"
       refX="0"
       id="Arrow2Lend-4"
       style="overflow:visible">
      <path
         inkscape:connector-curvature="0"
         id="path4995-2"
         style="fill-rule:evenodd;stroke-width:0.625;stroke-linejoin:round"
         d="M 8.7185878,4.0337352 -2.2072895,0.01601326 8.7185884,-4.0017078 c -1.7454984,2.3720609 -1.7354408,5.6174519 -6e-7,8.035443 z"
         transform="matrix(-1.1,0,0,-1.1,-1.1,0)" />
    </marker>
    <marker
       inkscape:stockid="Arrow2Lend"
       orient="auto"
       refY="0"
       refX="0"
       id="Arrow2Lend-6"
       style="overflow:visible">
      <path
         inkscape:connector-curvature="0"
         id="path4995-7"
         style="fill-rule:evenodd;stroke-width:0.625;stroke-linejoin:round"
         d="M 8.7185878,4.0337352 -2.2072895,0.01601326 8.7185884,-4.0017078 c -1.7454984,2.3720609 -1.7354408,5.6174519 -6e-7,8.035443 z"
         transform="matrix(-1.1,0,0,-1.1,-1.1,0)" />
    </marker>
    <marker
       inkscape:stockid="Arrow2Lend"
       orient="auto"
       refY="0"
       refX="0"
       id="Arrow2Lend-3"
       style="overflow:visible">
      <path
         inkscape:connector-curvature="0"
         id="path4995-8"
         style="fill-rule:evenodd;stroke-width:0.625;stroke-linejoin:round"
         d="M 8.7185878,4.0337352 -2.2072895,0.01601326 8.7185884,-4.0017078 c -1.7454984,2.3720609 -1.7354408,5.6174519 -6e-7,8.035443 z"
         transform="matrix(-1.1,0,0,-1.1,-1.1,0)" />
    </marker>
    <marker
       inkscape:stockid="Arrow2Lend"
       orient="auto"
       refY="0"
       refX="0"
       id="Arrow2Lend-30"
       style="overflow:visible">
      <path
         inkscape:connector-curvature="0"
         id="path4995-9"
         style="fill-rule:evenodd;stroke-width:0.625;stroke-linejoin:round"
         d="M 8.7185878,4.0337352 -2.2072895,0.01601326 8.7185884,-4.0017078 c -1.7454984,2.3720609 -1.7354408,5.6174519 -6e-7,8.035443 z"
         transform="matrix(-1.1,0,0,-1.1,-1.1,0)" />
    </marker>
    <marker
       inkscape:stockid="Arrow2Lend"
       orient="auto"
       refY="0"
       refX="0"
       id="Arrow2Lend-5"
       style="overflow:visible">
      <path
         inkscape:connector-curvature="0"
         id="path4995-3"
         style="fill-rule:evenodd;stroke-width:0.625;stroke-linejoin:round"
         d="M 8.7185878,4.0337352 -2.2072895,0.01601326 8.7185884,-4.0017078 c -1.7454984,2.3720609 -1.7354408,5.6174519 -6e-7,8.035443 z"
         transform="matrix(-1.1,0,0,-1.1,-1.1,0)" />
    </marker>
    <marker
       inkscape:stockid="Arrow2Lend"
       orient="auto"
       refY="0"
       refX="0"
       id="Arrow2Lend-0"
       style="overflow:visible">
      <path
         inkscape:connector-curvature="0"
         id="path4995-96"
         style="fill-rule:evenodd;stroke-width:0.625;stroke-linejoin:round"
         d="M 8.7185878,4.0337352 -2.2072895,0.01601326 8.7185884,-4.0017078 c -1.7454984,2.3720609 -1.7354408,5.6174519 -6e-7,8.035443 z"
         transform="matrix(-1.1,0,0,-1.1,-1.1,0)" />
    </marker>
    <marker
       inkscape:stockid="Arrow2Lend"
       orient="auto"
       refY="0"
       refX="0"
       id="Arrow2Lend-2"
       style="overflow:visible">
      <path
         inkscape:connector-curvature="0"
         id="path4995-24"
         style="fill-rule:evenodd;stroke-width:0.625;stroke-linejoin:round"
         d="M 8.7185878,4.0337352 -2.2072895,0.01601326 8.7185884,-4.0017078 c -1.7454984,2.3720609 -1.7354408,5.6174519 -6e-7,8.035443 z"
         transform="matrix(-1.1,0,0,-1.1,-1.1,0)" />
    </marker>
    <marker
       inkscape:stockid="Arrow2Lend"
       orient="auto"
       refY="0"
       refX="0"
       id="Arrow2Lend-26"
       style="overflow:visible">
      <path
         inkscape:connector-curvature="0"
         id="path4995-6"
         style="fill-rule:evenodd;stroke-width:0.625;stroke-linejoin:round"
         d="M 8.7185878,4.0337352 -2.2072895,0.01601326 8.7185884,-4.0017078 c -1.7454984,2.3720609 -1.7354408,5.6174519 -6e-7,8.035443 z"
         transform="matrix(-1.1,0,0,-1.1,-1.1,0)" />
    </marker>
    <marker
       inkscape:stockid="Arrow2Lend"
       orient="auto"
       refY="0"
       refX="0"
       id="marker4011"
       style="overflow:visible">
      <path
         inkscape:connector-curvature="0"
         id="path4013"
         style="fill-rule:evenodd;stroke-width:0.625;stroke-linejoin:round"
         d="M 8.7185878,4.0337352 -2.2072895,0.01601326 8.7185884,-4.0017078 c -1.7454984,2.3720609 -1.7354408,5.6174519 -6e-7,8.035443 z"
         transform="matrix(-1.1,0,0,-1.1,-1.1,0)" />
    </marker>
    <marker
       inkscape:stockid="Arrow2Lend"
       orient="auto"
       refY="0"
       refX="0"
       id="Arrow2Lend-34"
       style="overflow:visible">
      <path
         inkscape:connector-curvature="0"
         id="path4995-72"
         style="fill-rule:evenodd;stroke-width:0.625;stroke-linejoin:round"
         d="M 8.7185878,4.0337352 -2.2072895,0.01601326 8.7185884,-4.0017078 c -1.7454984,2.3720609 -1.7354408,5.6174519 -6e-7,8.035443 z"
         transform="matrix(-1.1,0,0,-1.1,-1.1,0)" />
    </marker>
    <marker
       inkscape:stockid="Arrow2Lend"
       orient="auto"
       refY="0"
       refX="0"
       id="Arrow2Lend-46"
       style="overflow:visible">
      <path
         inkscape:connector-curvature="0"
         id="path4995-37"
         style="fill-rule:evenodd;stroke-width:0.625;stroke-linejoin:round"
         d="M 8.7185878,4.0337352 -2.2072895,0.01601326 8.7185884,-4.0017078 c -1.7454984,2.3720609 -1.7354408,5.6174519 -6e-7,8.035443 z"
         transform="matrix(-1.1,0,0,-1.1,-1.1,0)" />
    </marker>
    <marker
       inkscape:stockid="Arrow2Lend"
       orient="auto"
       refY="0"
       refX="0"
       id="Arrow2Lend-8"
       style="overflow:visible">
      <path
         inkscape:connector-curvature="0"
         id="path4995-1"
         style="fill-rule:evenodd;stroke-width:0.625;stroke-linejoin:round"
         d="M 8.7185878,4.0337352 -2.2072895,0.01601326 8.7185884,-4.0017078 c -1.7454984,2.3720609 -1.7354408,5.6174519 -6e-7,8.035443 z"
         transform="matrix(-1.1,0,0,-1.1,-1.1,0)" />
    </marker>
    <marker
       inkscape:stockid="Arrow2Lend"
       orient="auto"
       refY="0"
       refX="0"
       id="Arrow2Lend-9"
       style="overflow:visible">
      <path
         inkscape:connector-curvature="0"
         id="path4995-14"
         style="fill-rule:evenodd;stroke-width:0.625;stroke-linejoin:round"
         d="M 8.7185878,4.0337352 -2.2072895,0.01601326 8.7185884,-4.0017078 c -1.7454984,2.3720609 -1.7354408,5.6174519 -6e-7,8.035443 z"
         transform="matrix(-1.1,0,0,-1.1,-1.1,0)" />
    </marker>
    <marker
       inkscape:stockid="Arrow2Lend"
       orient="auto"
       refY="0"
       refX="0"
       id="Arrow2Lend-7"
       style="overflow:visible">
      <path
         inkscape:connector-curvature="0"
         id="path4995-34"
         style="fill-rule:evenodd;stroke-width:0.625;stroke-linejoin:round"
         d="M 8.7185878,4.0337352 -2.2072895,0.01601326 8.7185884,-4.0017078 c -1.7454984,2.3720609 -1.7354408,5.6174519 -6e-7,8.035443 z"
         transform="matrix(-1.1,0,0,-1.1,-1.1,0)" />
    </marker>
    <marker
       inkscape:stockid="Arrow1Sstart"
       orient="auto"
       refY="0"
       refX="0"
       id="Arrow1Sstart-2"
       style="overflow:visible">
      <path
         inkscape:connector-curvature="0"
         id="path4141-4"
         d="M 0,0 5,-5 -12.5,0 5,5 0,0 z"
         style="fill-rule:evenodd;stroke:#000000;stroke-width:1pt"
         transform="matrix(0.2,0,0,0.2,1.2,0)" />
    </marker>
    <marker
       inkscape:stockid="Arrow1Sstart"
       orient="auto"
       refY="0"
       refX="0"
       id="marker5339"
       style="overflow:visible">
      <path
         inkscape:connector-curvature="0"
         id="path5341"
         d="M 0,0 5,-5 -12.5,0 5,5 0,0 z"
         style="fill-rule:evenodd;stroke:#000000;stroke-width:1pt"
         transform="matrix(0.2,0,0,0.2,1.2,0)" />
    </marker>
    <marker
       inkscape:stockid="Arrow2Lend"
       orient="auto"
       refY="0"
       refX="0"
       id="Arrow2Lend-75"
       style="overflow:visible">
      <path
         inkscape:connector-curvature="0"
         id="path4995-13"
         style="fill-rule:evenodd;stroke-width:0.625;stroke-linejoin:round"
         d="M 8.7185878,4.0337352 -2.2072895,0.01601326 8.7185884,-4.0017078 c -1.7454984,2.3720609 -1.7354408,5.6174519 -6e-7,8.035443 z"
         transform="matrix(-1.1,0,0,-1.1,-1.1,0)" />
    </marker>
    <marker
       inkscape:stockid="Arrow2Lend"
       orient="auto"
       refY="0"
       refX="0"
       id="Arrow2Lend-84"
       style="overflow:visible">
      <path
         inkscape:connector-curvature="0"
         id="path4995-0"
         style="fill-rule:evenodd;stroke-width:0.625;stroke-linejoin:round"
         d="M 8.7185878,4.0337352 -2.2072895,0.01601326 8.7185884,-4.0017078 c -1.7454984,2.3720609 -1.7354408,5.6174519 -6e-7,8.035443 z"
         transform="matrix(-1.1,0,0,-1.1,-1.1,0)" />
    </marker>
    <marker
       inkscape:stockid="Arrow2Lend"
       orient="auto"
       refY="0"
       refX="0"
       id="Arrow2Lend-85"
       style="overflow:visible">
      <path
         inkscape:connector-curvature="0"
         id="path4995-4"
         style="fill-rule:evenodd;stroke-width:0.625;stroke-linejoin:round"
         d="M 8.7185878,4.0337352 -2.2072895,0.01601326 8.7185884,-4.0017078 c -1.7454984,2.3720609 -1.7354408,5.6174519 -6e-7,8.035443 z"
         transform="matrix(-1.1,0,0,-1.1,-1.1,0)" />
    </marker>
    <marker
       inkscape:stockid="Arrow2Lend"
       orient="auto"
       refY="0"
       refX="0"
       id="Arrow2Lend-39"
       style="overflow:visible">
      <path
         inkscape:connector-curvature="0"
         id="path4995-5"
         style="fill-rule:evenodd;stroke-width:0.625;stroke-linejoin:round"
         d="M 8.7185878,4.0337352 -2.2072895,0.01601326 8.7185884,-4.0017078 c -1.7454984,2.3720609 -1.7354408,5.6174519 -6e-7,8.035443 z"
         transform="matrix(-1.1,0,0,-1.1,-1.1,0)" />
    </marker>
    <marker
       inkscape:stockid="Arrow2Lend"
       orient="auto"
       refY="0"
       refX="0"
       id="Arrow2Lend-38"
       style="overflow:visible">
      <path
         inkscape:connector-curvature="0"
         id="path4995-46"
         style="fill-rule:evenodd;stroke-width:0.625;stroke-linejoin:round"
         d="M 8.7185878,4.0337352 -2.2072895,0.01601326 8.7185884,-4.0017078 c -1.7454984,2.3720609 -1.7354408,5.6174519 -6e-7,8.035443 z"
         transform="matrix(-1.1,0,0,-1.1,-1.1,0)" />
    </marker>
    <marker
       inkscape:stockid="Arrow2Lend"
       orient="auto"
       refY="0"
       refX="0"
       id="marker4370"
       style="overflow:visible">
      <path
         inkscape:connector-curvature="0"
         id="path4372"
         style="fill-rule:evenodd;stroke-width:0.625;stroke-linejoin:round"
         d="M 8.7185878,4.0337352 -2.2072895,0.01601326 8.7185884,-4.0017078 c -1.7454984,2.3720609 -1.7354408,5.6174519 -6e-7,8.035443 z"
         transform="matrix(-1.1,0,0,-1.1,-1.1,0)" />
    </marker>
    <marker
       inkscape:stockid="Arrow2Lend"
       orient="auto"
       refY="0"
       refX="0"
       id="marker4374"
       style="overflow:visible">
      <path
         inkscape:connector-curvature="0"
         id="path4376"
         style="fill-rule:evenodd;stroke-width:0.625;stroke-linejoin:round"
         d="M 8.7185878,4.0337352 -2.2072895,0.01601326 8.7185884,-4.0017078 c -1.7454984,2.3720609 -1.7354408,5.6174519 -6e-7,8.035443 z"
         transform="matrix(-1.1,0,0,-1.1,-1.1,0)" />
    </marker>
    <marker
       inkscape:stockid="Arrow2Lend"
       orient="auto"
       refY="0"
       refX="0"
       id="marker4378"
       style="overflow:visible">
      <path
         inkscape:connector-curvature="0"
         id="path4380"
         style="fill-rule:evenodd;stroke-width:0.625;stroke-linejoin:round"
         d="M 8.7185878,4.0337352 -2.2072895,0.01601326 8.7185884,-4.0017078 c -1.7454984,2.3720609 -1.7354408,5.6174519 -6e-7,8.035443 z"
         transform="matrix(-1.1,0,0,-1.1,-1.1,0)" />
    </marker>
    <marker
       inkscape:stockid="Arrow2Lend"
       orient="auto"
       refY="0"
       refX="0"
       id="marker4382"
       style="overflow:visible">
      <path
         inkscape:connector-curvature="0"
         id="path4384"
         style="fill-rule:evenodd;stroke-width:0.625;stroke-linejoin:round"
         d="M 8.7185878,4.0337352 -2.2072895,0.01601326 8.7185884,-4.0017078 c -1.7454984,2.3720609 -1.7354408,5.6174519 -6e-7,8.035443 z"
         transform="matrix(-1.1,0,0,-1.1,-1.1,0)" />
    </marker>
    <marker
       inkscape:stockid="Arrow2Lend"
       orient="auto"
       refY="0"
       refX="0"
       id="marker4386"
       style="overflow:visible">
      <path
         inkscape:connector-curvature="0"
         id="path4388"
         style="fill-rule:evenodd;stroke-width:0.625;stroke-linejoin:round"
         d="M 8.7185878,4.0337352 -2.2072895,0.01601326 8.7185884,-4.0017078 c -1.7454984,2.3720609 -1.7354408,5.6174519 -6e-7,8.035443 z"
         transform="matrix(-1.1,0,0,-1.1,-1.1,0)" />
    </marker>
    <marker
       inkscape:stockid="Arrow2Lend"
       orient="auto"
       refY="0"
       refX="0"
       id="Arrow2Lend-95"
       style="overflow:visible">
      <path
         inkscape:connector-curvature="0"
         id="path4995-50"
         style="fill-rule:evenodd;stroke-width:0.625;stroke-linejoin:round"
         d="M 8.7185878,4.0337352 -2.2072895,0.01601326 8.7185884,-4.0017078 c -1.7454984,2.3720609 -1.7354408,5.6174519 -6e-7,8.035443 z"
         transform="matrix(-1.1,0,0,-1.1,-1.1,0)" />
    </marker>
    <marker
       inkscape:stockid="Arrow2Lend"
       orient="auto"
       refY="0"
       refX="0"
       id="Arrow2Lend-44"
       style="overflow:visible">
      <path
         inkscape:connector-curvature="0"
         id="path4995-25"
         style="fill-rule:evenodd;stroke-width:0.625;stroke-linejoin:round"
         d="M 8.7185878,4.0337352 -2.2072895,0.01601326 8.7185884,-4.0017078 c -1.7454984,2.3720609 -1.7354408,5.6174519 -6e-7,8.035443 z"
         transform="matrix(-1.1,0,0,-1.1,-1.1,0)" />
    </marker>
  </defs>
  <sodipodi:namedview
     id="base"
     pagecolor="#ffffff"
     bordercolor="#666666"
     borderopacity="1.0"
     inkscape:pageopacity="0.0"
     inkscape:pageshadow="2"
     inkscape:zoom="1.4"
     inkscape:cx="398.08689"
     inkscape:cy="605.08132"
     inkscape:document-units="px"
     inkscape:current-layer="layer1"
     showgrid="false"
     inkscape:window-width="1280"
     inkscape:window-height="714"
     inkscape:window-x="10"
     inkscape:window-y="0"
     inkscape:window-maximized="0" />
  <metadata
     id="metadata3504">
    <rdf:RDF>
      <cc:Work
         rdf:about="">
        <dc:format>image/svg+xml</dc:format>
        <dc:type
           rdf:resource="http://purl.org/dc/dcmitype/StillImage" />
        <dc:title />
      </cc:Work>
    </rdf:RDF>
  </metadata>
  <g
     inkscape:label="Calque 1"
     inkscape:groupmode="layer"
     id="layer1">
    <rect
       ry="0"
       y="256.48672"
       x="302.04895"
       height="40.322334"
       width="120.33068"
       id="rect6431-1-4-9-4-3-3-2-4-9-0-3-4-4"
       style="fill:#ffffff;fill-opacity:1;fill-rule:nonzero;stroke:#000000;stroke-width:0.51003563;stroke-miterlimit:3.79999995;stroke-dasharray:1.02007136, 2.04014271;stroke-dashoffset:0;stroke-opacity:1" />
    <rect
       ry="0"
       y="332.19888"
       x="191.4855"
       height="20.388659"
       width="62.735435"
       id="rect6431-1-4-9-4-3-3-2-4-9-0-3-2-3"
       style="fill:#f5f5f5;fill-opacity:1;fill-rule:nonzero;stroke:#000000;stroke-width:0.26171148;stroke-miterlimit:3.79999995;stroke-dasharray:0.26171149, 0.78513447;stroke-dashoffset:0;stroke-opacity:1" />
    <rect
       ry="0"
       y="202.55537"
       x="94.847717"
       height="92.844147"
       width="143.56677"
       id="rect6431-1-4-9-4-3-3-2-4-9-0-3"
       style="fill:#ffffff;fill-opacity:1;fill-rule:nonzero;stroke:#000000;stroke-width:0.84536409;stroke-miterlimit:3.79999995;stroke-opacity:1;stroke-dasharray:1.69072818, 3.38145637;stroke-dashoffset:0" />
    <flowRoot
       transform="matrix(1.3660348,0,0,1.4072149,-70.935414,-894.67213)"
       style="font-size:40px;font-style:normal;font-weight:normal;line-height:125%;letter-spacing:0px;word-spacing:0px;fill:#d40000;fill-opacity:1;stroke:none;font-family:Sans"
       id="flowRoot10107-0-6-9-91-7-0-7-3-3"
       xml:space="preserve"><flowRegion
         id="flowRegion10109-1-4-1-7-1-5-1-5-6"><rect
           style="fill:#d40000;fill-opacity:1"
           y="780.99219"
           x="140"
           height="13.056681"
           width="73.119614"
           id="rect10111-9-4-5-44-6-2-2-4-5" /></flowRegion><flowPara
         id="flowPara5780-1-5-0-5-1-5-8"
         style="font-size:9.25847244px;text-align:justify;text-anchor:start;fill:#000000;fill-opacity:1">COMPILATION</flowPara></flowRoot>    <rect
       ry="0"
       y="345.37"
       x="333.98871"
       height="55.632893"
       width="128.38295"
       id="rect6431-1-4-9-4-3-3-2-4-9-0-3-8"
       style="fill:#ffffff;fill-opacity:1;fill-rule:nonzero;stroke:#000000;stroke-width:1.54898393;stroke-miterlimit:4;stroke-dasharray:none;stroke-opacity:1" />
    <path
       inkscape:connector-curvature="0"
       id="path10538-6-9-9-4-4"
       d="m 51.0969,238.85533 39.478789,0.24417"
       style="fill:none;stroke:#000000;stroke-width:0.96457994;stroke-linecap:butt;stroke-linejoin:miter;stroke-miterlimit:4;stroke-opacity:1;stroke-dasharray:none;stroke-dashoffset:0;marker-end:url(#Arrow2Lend)" />
    <flowRoot
       transform="matrix(1.3660348,0,0,1.4072149,-179.67547,-876.18419)"
       style="font-size:40px;font-style:normal;font-weight:normal;line-height:125%;letter-spacing:0px;word-spacing:0px;fill:#000000;fill-opacity:1;stroke:none;font-family:Sans"
       id="flowRoot10107-0-6-9-91-7-0-7-8-0"
       xml:space="preserve"><flowRegion
         id="flowRegion10109-1-4-1-7-1-5-1-0-6"><rect
           style="fill:#000000;fill-opacity:1"
           y="780.99219"
           x="140"
           height="30.133184"
           width="38.945686"
           id="rect10111-9-4-5-44-6-2-2-2-7" /></flowRegion><flowPara
         id="flowPara5780-1-5-0-5-1-4-2"
         style="font-size:7.93380642px;text-align:justify;text-anchor:start;fill:#000000;fill-opacity:1">source code</flowPara></flowRoot>    <path
       inkscape:connector-curvature="0"
       id="path10538-6-9-9-4-4-5"
       d="m 362.41627,298.59801 11.41088,27.6904"
       style="fill:none;stroke:#000000;stroke-width:0.7545476;stroke-linecap:butt;stroke-linejoin:miter;stroke-miterlimit:4;stroke-opacity:1;stroke-dasharray:none;stroke-dashoffset:0;marker-end:url(#Arrow2Lend)" />
    <flowRoot
       transform="matrix(1.3660348,0,0,1.4072149,145.61023,-769.32702)"
       style="font-style:normal;font-weight:normal;font-size:40px;line-height:125%;font-family:Sans;letter-spacing:0px;word-spacing:0px;fill:#000000;fill-opacity:1;stroke:none"
       id="flowRoot10107-0-6-9-91-7-0-7-8-1"
       xml:space="preserve"><flowRegion
         id="flowRegion10109-1-4-1-7-1-5-1-0-1"><rect
           style="fill:#000000;fill-opacity:1"
           y="780.99219"
           x="140"
           height="15.920695"
           width="66.658844"
           id="rect10111-9-4-5-44-6-2-2-2-9" /></flowRegion><flowPara
         id="flowPara5780-1-5-0-5-1-4-9"
         style="font-size:7.21255112px;text-align:justify;text-anchor:start;fill:#000000;fill-opacity:1">Trace file:</flowPara></flowRoot>    <flowRoot
       transform="matrix(1.3660348,0,0,1.4072149,146.97019,-751.14954)"
       style="font-style:normal;font-weight:normal;font-size:40px;line-height:125%;font-family:Sans;letter-spacing:0px;word-spacing:0px;fill:#000000;fill-opacity:1;stroke:none"
       id="flowRoot10107-0-6-9-91-7-0-7-8-1-3-7"
       xml:space="preserve"><flowRegion
         id="flowRegion10109-1-4-1-7-1-5-1-0-1-7-1"><rect
           style="fill:#000000;fill-opacity:1"
           y="780.99219"
           x="140"
           height="8.3068867"
           width="89.666023"
           id="rect10111-9-4-5-44-6-2-2-2-9-4-6" /></flowRegion><flowPara
         id="flowPara5780-1-5-0-5-1-4-9-3-2"
         style="font-size:4.32753086px;text-align:justify;text-anchor:start;fill:#000000;fill-opacity:1">EVENT   ADDR  TIME  THREAD   MARKER</flowPara></flowRoot>    <flowRoot
       transform="matrix(1.3660348,0,0,1.4072149,129.11668,-838.48779)"
       style="font-size:40px;font-style:normal;font-weight:normal;line-height:125%;letter-spacing:0px;word-spacing:0px;fill:#d40000;fill-opacity:1;stroke:none;font-family:Sans"
       id="flowRoot10107-0-6-9-91-7-0-7-3-3-6"
       xml:space="preserve"><flowRegion
         id="flowRegion10109-1-4-1-7-1-5-1-5-6-3"><rect
           style="fill:#d40000;fill-opacity:1"
           y="780.99219"
           x="140"
           height="13.056681"
           width="73.119614"
           id="rect10111-9-4-5-44-6-2-2-4-5-0" /></flowRegion><flowPara
         id="flowPara5780-1-5-0-5-1-5-8-9"
         style="font-size:9.25847244px;text-align:justify;text-anchor:start;fill:#000000;fill-opacity:1">EXECUTION</flowPara></flowRoot>    <path
       inkscape:connector-curvature="0"
       id="path10538-6-9-9-4-4-1-9"
       d="m 242.17749,280.21578 55.26223,0.24417"
       style="fill:none;stroke:#000000;stroke-width:0.96799999;stroke-linecap:butt;stroke-linejoin:miter;stroke-miterlimit:4;stroke-opacity:1;stroke-dasharray:3.872, 3.872;stroke-dashoffset:0;marker-end:url(#Arrow2Lend)" />
    <rect
       ry="0"
       y="510.65479"
       x="317.10709"
       height="36.55764"
       width="114.91527"
       id="rect6431-1-4-9-4-3-3-2-4-9-0-3-0-8"
       style="fill:#ffffff;fill-opacity:1;fill-rule:nonzero;stroke:#000000;stroke-width:0.47458878;stroke-miterlimit:3.79999995;stroke-dasharray:0.94917768, 1.89835537;stroke-dashoffset:0;stroke-opacity:1" />
    <flowRoot
       transform="matrix(1.3660348,0,0,1.4072149,142.94423,-586.93575)"
       style="font-style:normal;font-weight:normal;font-size:40px;line-height:125%;font-family:Sans;letter-spacing:0px;word-spacing:0px;fill:#d40000;fill-opacity:1;stroke:none"
       id="flowRoot10107-0-6-9-91-7-0-7-3-3-6-6"
       xml:space="preserve"><flowRegion
         id="flowRegion10109-1-4-1-7-1-5-1-5-6-3-4"><rect
           style="fill:#d40000;fill-opacity:1"
           y="780.99219"
           x="140"
           height="13.056681"
           width="73.119614"
           id="rect10111-9-4-5-44-6-2-2-4-5-0-6" /></flowRegion><flowPara
         id="flowPara5780-1-5-0-5-1-5-8-9-7"
         style="font-size:9.25847244px;text-align:justify;text-anchor:start;fill:#000000;fill-opacity:1">EXECUTION</flowPara></flowRoot>    <path
       inkscape:connector-curvature="0"
       id="path10538-6-9-9-4-4-5-3"
       d="m 303.21428,206.70116 16.08431,44.4048"
       style="fill:none;stroke:#000000;stroke-width:0.62503296;stroke-linecap:butt;stroke-linejoin:miter;stroke-miterlimit:4;stroke-dasharray:none;stroke-dashoffset:0;stroke-opacity:1;marker-end:url(#Arrow2Lend)" />
    <path
       inkscape:connector-curvature="0"
       id="path10538-6-9-9-4-44"
       d="m 260.67011,341.98244 66.45131,24.09679"
       style="fill:none;stroke:#000000;stroke-width:3.3192358;stroke-linecap:butt;stroke-linejoin:miter;stroke-miterlimit:3.4000001;stroke-dasharray:none;stroke-dashoffset:0;stroke-opacity:1;marker-start:url(#marker5339);marker-end:url(#Arrow1Send)" />
    <flowRoot
       transform="matrix(1.3660348,0,0,1.4072149,8.1287197,-764.86372)"
       style="font-style:normal;font-weight:normal;font-size:40px;line-height:125%;font-family:Sans;letter-spacing:0px;word-spacing:0px;fill:#000000;fill-opacity:1;stroke:none"
       id="flowRoot10107-0-6-9-91-7-0-7-8-0-8-2"
       xml:space="preserve"
       inkscape:transform-center-x="7.1428571"><flowRegion
         id="flowRegion10109-1-4-1-7-1-5-1-0-6-6-1"><rect
           style="fill:#000000;fill-opacity:1"
           y="780.99219"
           x="140"
           height="12.367591"
           width="79.731087"
           id="rect10111-9-4-5-44-6-2-2-2-7-9-9" /></flowRegion><flowPara
         id="flowPara5780-1-5-0-5-1-4-2-4-0"
         style="font-size:7.93380642px;text-align:justify;text-anchor:start;fill:#000000;fill-opacity:1">Analyzer</flowPara></flowRoot>    <flowRoot
       transform="matrix(1.3660348,0,0,1.4072149,146.40465,-816.13207)"
       style="font-size:40px;font-style:normal;font-weight:normal;line-height:125%;letter-spacing:0px;word-spacing:0px;fill:#000000;fill-opacity:1;stroke:none;font-family:Sans"
       id="flowRoot10107-0-6-9-91-7-0-7-8-1-0"
       xml:space="preserve"><flowRegion
         id="flowRegion10109-1-4-1-7-1-5-1-0-1-7"><rect
           style="fill:#000000;fill-opacity:1"
           y="780.99219"
           x="140"
           height="8.3068924"
           width="59.338387"
           id="rect10111-9-4-5-44-6-2-2-2-9-9" /></flowRegion><flowPara
         id="flowPara5780-1-5-0-5-1-4-9-4"
         style="font-size:6.49129581px;text-align:justify;text-anchor:start;fill:#000000;fill-opacity:1">execution-time T</flowPara></flowRoot>    <flowRoot
       transform="matrix(1.3660348,0,0,1.4072149,147.85685,-564.6579)"
       style="font-style:normal;font-weight:normal;font-size:40px;line-height:125%;font-family:Sans;letter-spacing:0px;word-spacing:0px;fill:#000000;fill-opacity:1;stroke:none"
       id="flowRoot10107-0-6-9-91-7-0-7-8-1-0-6"
       xml:space="preserve"><flowRegion
         id="flowRegion10109-1-4-1-7-1-5-1-0-1-7-8"><rect
           style="fill:#000000;fill-opacity:1"
           y="780.99219"
           x="140"
           height="9.3220615"
           width="75.547966"
           id="rect10111-9-4-5-44-6-2-2-2-9-9-6" /></flowRegion><flowPara
         id="flowPara5780-1-5-0-5-1-4-9-4-5"
         style="font-size:6.49129581px;text-align:justify;text-anchor:start;fill:#000000;fill-opacity:1">execution-time T'&lt;T</flowPara></flowRoot>    <flowRoot
       transform="matrix(1.3660348,0,0,1.4072149,-93.266561,-867.30285)"
       style="font-size:40px;font-style:normal;font-weight:normal;line-height:125%;letter-spacing:0px;word-spacing:0px;fill:#000000;fill-opacity:1;stroke:none;font-family:Sans"
       id="flowRoot10107-0-6-9-91-7-0-7-8-0-18"
       xml:space="preserve"><flowRegion
         id="flowRegion10109-1-4-1-7-1-5-1-0-6-29"><rect
           style="fill:#000000;fill-opacity:1"
           y="780.99219"
           x="140"
           height="12.367595"
           width="81.822639"
           id="rect10111-9-4-5-44-6-2-2-2-7-1" /></flowRegion><flowPara
         id="flowPara5780-1-5-0-5-1-4-2-56"
         style="font-size:6.49129581px;text-align:justify;text-anchor:start;fill:#000000;fill-opacity:1">.upc      .trans.c      .bc</flowPara></flowRoot>    <flowRoot
       transform="matrix(1.3660348,0,0,1.4072149,-5.258777,-825.38058)"
       style="font-size:40px;font-style:normal;font-weight:normal;line-height:125%;letter-spacing:0px;word-spacing:0px;fill:#000000;fill-opacity:1;stroke:none;font-family:Sans"
       id="flowRoot10107-0-6-9-91-7-0-7-8-0-18-7"
       xml:space="preserve"><flowRegion
         id="flowRegion10109-1-4-1-7-1-5-1-0-6-29-8"><rect
           style="fill:#000000;fill-opacity:1"
           y="780.99219"
           x="140"
           height="12.367595"
           width="81.822639"
           id="rect10111-9-4-5-44-6-2-2-2-7-1-3" /></flowRegion><flowPara
         id="flowPara5780-1-5-0-5-1-4-2-56-7"
         style="font-size:6.49129581px;text-align:justify;text-anchor:start;fill:#000000;fill-opacity:1">.bc       .s</flowPara></flowRoot>    <rect
       ry="0"
       y="246.21391"
       x="198.23863"
       height="26.010843"
       width="85.197235"
       id="rect6431-1-4-9-4-3-3-2-4-9-0-3-2-3-1"
       style="fill:#f5f5f5;fill-opacity:1;fill-rule:nonzero;stroke:#000000;stroke-width:0.34447837;stroke-miterlimit:3.79999995;stroke-dasharray:0.34447835, 1.03343508;stroke-dashoffset:0;stroke-opacity:1" />
    <flowRoot
       transform="matrix(1.3660348,0,0,1.4072149,9.9183561,-850.18052)"
       style="font-style:normal;font-weight:normal;font-size:40px;line-height:125%;font-family:Sans;letter-spacing:0px;word-spacing:0px;fill:#000000;fill-opacity:1;stroke:none"
       id="flowRoot10107-0-6-9-91-7-0-7-8-0-8-2-8"
       xml:space="preserve"
       inkscape:transform-center-x="7.1428571"><flowRegion
         id="flowRegion10109-1-4-1-7-1-5-1-0-6-6-1-4"><rect
           style="fill:#000000;fill-opacity:1"
           y="780.99219"
           x="140"
           height="11.352419"
           width="65.090172"
           id="rect10111-9-4-5-44-6-2-2-2-7-9-9-7"
           ry="0" /></flowRegion><flowPara
         id="flowPara5780-1-5-0-5-1-4-2-4-0-0"
         style="font-size:7.93380642px;text-align:justify;text-anchor:start;fill:#000000;fill-opacity:1">Pass = Tracker</flowPara></flowRoot>    <path
       inkscape:connector-curvature="0"
       id="path10538-6-9-9-4-4-4"
       d="m 118.87663,238.93289 11.86642,0.24417"
       style="fill:none;stroke:#000000;stroke-width:0.52883005;stroke-linecap:butt;stroke-linejoin:miter;stroke-miterlimit:4;stroke-opacity:1;stroke-dasharray:none;stroke-dashoffset:0;marker-end:url(#Arrow2Lend)" />
    <path
       inkscape:connector-curvature="0"
       id="path10538-6-9-9-4-4-4-1"
       d="m 169.86323,238.40631 11.86642,0.24417"
       style="fill:none;stroke:#000000;stroke-width:0.52883005;stroke-linecap:butt;stroke-linejoin:miter;stroke-miterlimit:4;stroke-opacity:1;stroke-dasharray:none;stroke-dashoffset:0;marker-end:url(#Arrow2Lend)" />
    <path
       inkscape:connector-curvature="0"
       id="path10538-6-9-9-4-4-4-1-4"
       d="m 204.29181,280.40631 11.86642,0.24417"
       style="fill:none;stroke:#000000;stroke-width:0.52883005;stroke-linecap:butt;stroke-linejoin:miter;stroke-miterlimit:4;stroke-opacity:1;stroke-dasharray:none;stroke-dashoffset:0;marker-end:url(#Arrow2Lend)" />
    <path
       inkscape:connector-curvature="0"
       id="path10538-6-9-9-4-4-4-1-4-1"
       d="m 191.44237,244.01611 0.12964,28.84278"
       style="fill:none;stroke:#000000;stroke-width:0.62400001;stroke-linecap:butt;stroke-linejoin:miter;stroke-miterlimit:4;stroke-opacity:1;stroke-dasharray:none;stroke-dashoffset:0;marker-end:url(#Arrow2Lend)" />
    <rect
       ry="0"
       y="183.09999"
       x="273.80685"
       height="20.33637"
       width="52.961609"
       id="rect6431-1-4-9-4-3-3-2-4-9-0-3-2-3-90"
       style="fill:#f5f5f5;fill-opacity:1;fill-rule:nonzero;stroke:#000000;stroke-width:0.24015372;stroke-miterlimit:3.79999995;stroke-dasharray:0.24015371, 0.72046113;stroke-dashoffset:0;stroke-opacity:1" />
    <flowRoot
       transform="matrix(1.3660348,0,0,1.4072149,88.423933,-913.98882)"
       style="font-style:normal;font-weight:normal;font-size:40px;line-height:125%;font-family:Sans;letter-spacing:0px;word-spacing:0px;fill:#000000;fill-opacity:1;stroke:none"
       id="flowRoot10107-0-6-9-91-7-0-7-8-0-8-2-0"
       xml:space="preserve"
       inkscape:transform-center-x="7.1428571"><flowRegion
         id="flowRegion10109-1-4-1-7-1-5-1-0-6-6-1-1"><rect
           style="fill:#000000;fill-opacity:1"
           y="780.99219"
           x="140"
           height="12.367591"
           width="79.731087"
           id="rect10111-9-4-5-44-6-2-2-2-7-9-9-0" /></flowRegion><flowPara
         id="flowPara5780-1-5-0-5-1-4-2-4-0-4"
         style="font-size:7.93380642px;text-align:justify;text-anchor:start;fill:#000000;fill-opacity:1">Profiler</flowPara></flowRoot>    <rect
       ry="0"
       y="447.51154"
       x="94.978104"
       height="92.844147"
       width="143.56677"
       id="rect6431-1-4-9-4-3-3-2-4-9-0-3-4"
       style="fill:#ffffff;fill-opacity:1;fill-rule:nonzero;stroke:#000000;stroke-width:0.84536409;stroke-miterlimit:3.79999995;stroke-dasharray:1.69072818, 3.38145637;stroke-dashoffset:0;stroke-opacity:1" />
    <flowRoot
       transform="matrix(1.3660348,0,0,1.4072149,-70.80504,-649.71594)"
       style="font-style:normal;font-weight:normal;font-size:40px;line-height:125%;font-family:Sans;letter-spacing:0px;word-spacing:0px;fill:#d40000;fill-opacity:1;stroke:none"
       id="flowRoot10107-0-6-9-91-7-0-7-3-3-67"
       xml:space="preserve"><flowRegion
         id="flowRegion10109-1-4-1-7-1-5-1-5-6-9"><rect
           style="fill:#d40000;fill-opacity:1"
           y="780.99219"
           x="140"
           height="13.056681"
           width="73.119614"
           id="rect10111-9-4-5-44-6-2-2-4-5-2" /></flowRegion><flowPara
         id="flowPara5780-1-5-0-5-1-5-8-97"
         style="font-size:9.25847244px;text-align:justify;text-anchor:start;fill:#000000;fill-opacity:1">COMPILATION</flowPara></flowRoot>    <path
       inkscape:connector-curvature="0"
       id="path10538-6-9-9-4-4-2"
       d="m 51.22728,483.81149 39.47879,0.24417"
       style="fill:none;stroke:#000000;stroke-width:0.96457994;stroke-linecap:butt;stroke-linejoin:miter;stroke-miterlimit:4;stroke-dasharray:none;stroke-dashoffset:0;stroke-opacity:1;marker-end:url(#Arrow2Lend)" />
    <flowRoot
       transform="matrix(1.3660348,0,0,1.4072149,-179.5451,-631.22804)"
       style="font-style:normal;font-weight:normal;font-size:40px;line-height:125%;font-family:Sans;letter-spacing:0px;word-spacing:0px;fill:#000000;fill-opacity:1;stroke:none"
       id="flowRoot10107-0-6-9-91-7-0-7-8-0-2"
       xml:space="preserve"><flowRegion
         id="flowRegion10109-1-4-1-7-1-5-1-0-6-2"><rect
           style="fill:#000000;fill-opacity:1"
           y="780.99219"
           x="140"
           height="30.133184"
           width="38.945686"
           id="rect10111-9-4-5-44-6-2-2-2-7-9" /></flowRegion><flowPara
         id="flowPara5780-1-5-0-5-1-4-2-4"
         style="font-size:7.93380642px;text-align:justify;text-anchor:start;fill:#000000;fill-opacity:1">source code</flowPara></flowRoot>    <path
       inkscape:connector-curvature="0"
       id="path10538-6-9-9-4-4-1-9-5"
       d="m 242.30786,531.17194 70.32249,0.24417"
       style="fill:none;stroke:#000000;stroke-width:1.09196389;stroke-linecap:butt;stroke-linejoin:miter;stroke-miterlimit:4;stroke-dasharray:4.36785553, 4.36785553;stroke-dashoffset:0;stroke-opacity:1;marker-end:url(#Arrow2Lend)" />
    <flowRoot
       transform="matrix(1.3660348,0,0,1.4072149,-93.13619,-622.34664)"
       style="font-style:normal;font-weight:normal;font-size:40px;line-height:125%;font-family:Sans;letter-spacing:0px;word-spacing:0px;fill:#000000;fill-opacity:1;stroke:none"
       id="flowRoot10107-0-6-9-91-7-0-7-8-0-18-5"
       xml:space="preserve"><flowRegion
         id="flowRegion10109-1-4-1-7-1-5-1-0-6-29-2"><rect
           style="fill:#000000;fill-opacity:1"
           y="780.99219"
           x="140"
           height="12.367595"
           width="81.822639"
           id="rect10111-9-4-5-44-6-2-2-2-7-1-32" /></flowRegion><flowPara
         id="flowPara5780-1-5-0-5-1-4-2-56-71"
         style="font-size:6.49129581px;text-align:justify;text-anchor:start;fill:#000000;fill-opacity:1">.upc      .trans.c      .bc</flowPara></flowRoot>    <flowRoot
       transform="matrix(1.3660348,0,0,1.4072149,-5.1284,-580.42444)"
       style="font-style:normal;font-weight:normal;font-size:40px;line-height:125%;font-family:Sans;letter-spacing:0px;word-spacing:0px;fill:#000000;fill-opacity:1;stroke:none"
       id="flowRoot10107-0-6-9-91-7-0-7-8-0-18-7-4"
       xml:space="preserve"><flowRegion
         id="flowRegion10109-1-4-1-7-1-5-1-0-6-29-8-6"><rect
           style="fill:#000000;fill-opacity:1"
           y="780.99219"
           x="140"
           height="12.367595"
           width="81.822639"
           id="rect10111-9-4-5-44-6-2-2-2-7-1-3-2" /></flowRegion><flowPara
         id="flowPara5780-1-5-0-5-1-4-2-56-7-1"
         style="font-size:6.49129581px;text-align:justify;text-anchor:start;fill:#000000;fill-opacity:1">.bc       .s</flowPara></flowRoot>    <rect
       ry="0"
       y="489.17032"
       x="198.36926"
       height="24.5818"
       width="103.06004"
       id="rect6431-1-4-9-4-3-3-2-4-9-0-3-2-3-1-9"
       style="fill:#f5f5f5;fill-opacity:1;fill-rule:nonzero;stroke:#000000;stroke-width:0.36831892;stroke-miterlimit:3.79999995;stroke-dasharray:0.3683189, 1.10495672;stroke-dashoffset:0;stroke-opacity:1" />
    <flowRoot
       transform="matrix(1.3660348,0,0,1.4072149,10.04873,-609.22434)"
       style="font-style:normal;font-weight:normal;font-size:40px;line-height:125%;font-family:Sans;letter-spacing:0px;word-spacing:0px;fill:#000000;fill-opacity:1;stroke:none"
       id="flowRoot10107-0-6-9-91-7-0-7-8-0-8-2-8-4"
       xml:space="preserve"
       inkscape:transform-center-x="7.1428571"><flowRegion
         id="flowRegion10109-1-4-1-7-1-5-1-0-6-6-1-4-5"><rect
           style="fill:#000000;fill-opacity:1"
           y="780.99219"
           x="140"
           height="15.920735"
           width="167.05368"
           id="rect10111-9-4-5-44-6-2-2-2-7-9-9-7-3" /></flowRegion><flowPara
         id="flowPara5780-1-5-0-5-1-4-2-4-0-0-0"
         style="font-size:7.93380642px;text-align:justify;text-anchor:start;fill:#000000;fill-opacity:1">Pass = Optimizer</flowPara></flowRoot>    <path
       inkscape:connector-curvature="0"
       id="path10538-6-9-9-4-4-4-5"
       d="m 119.007,483.88905 11.86642,0.24417"
       style="fill:none;stroke:#000000;stroke-width:0.52883005;stroke-linecap:butt;stroke-linejoin:miter;stroke-miterlimit:4;stroke-dasharray:none;stroke-dashoffset:0;stroke-opacity:1;marker-end:url(#Arrow2Lend)" />
    <path
       inkscape:connector-curvature="0"
       id="path10538-6-9-9-4-4-4-1-8"
       d="m 169.9936,483.36247 11.86642,0.24417"
       style="fill:none;stroke:#000000;stroke-width:0.52883005;stroke-linecap:butt;stroke-linejoin:miter;stroke-miterlimit:4;stroke-dasharray:none;stroke-dashoffset:0;stroke-opacity:1;marker-end:url(#Arrow2Lend)" />
    <path
       inkscape:connector-curvature="0"
       id="path10538-6-9-9-4-4-4-1-4-6"
       d="m 204.42218,525.36247 11.86642,0.24417"
       style="fill:none;stroke:#000000;stroke-width:0.52883005;stroke-linecap:butt;stroke-linejoin:miter;stroke-miterlimit:4;stroke-dasharray:none;stroke-dashoffset:0;stroke-opacity:1;marker-end:url(#Arrow2Lend)" />
    <path
       inkscape:connector-curvature="0"
       id="path10538-6-9-9-4-4-4-1-4-1-9"
       d="m 191.57274,488.97227 0.12964,28.84278"
       style="fill:none;stroke:#000000;stroke-width:0.62400001;stroke-linecap:butt;stroke-linejoin:miter;stroke-miterlimit:4;stroke-dasharray:none;stroke-dashoffset:0;stroke-opacity:1;marker-end:url(#Arrow2Lend)" />
    <path
       inkscape:connector-curvature="0"
       id="path10538-6-9-9-4"
       d="m 219.94153,480.28563 -1.6656,-48.65813"
       style="fill:none;stroke:#000000;stroke-width:3.58820367;stroke-linecap:butt;stroke-linejoin:miter;stroke-miterlimit:3.4000001;stroke-dasharray:none;stroke-dashoffset:0;stroke-opacity:1;marker-start:url(#marker5339);marker-end:url(#Arrow1Send)" />
    <path
       inkscape:connector-curvature="0"
       id="path10538-6-9-9-4-4-1-9-1"
       d="m 5.82524,312.75222 569.81348,0.24417"
       style="fill:none;stroke:#000000;stroke-width:0.09293361;stroke-linecap:butt;stroke-linejoin:miter;stroke-miterlimit:4;stroke-opacity:1;stroke-dasharray:2.23040652, 0.0929336;stroke-dashoffset:0.01858672;marker-end:none" />
    <path
       inkscape:connector-curvature="0"
       id="path10538-6-9-9-4-4-1-9-1-2"
       d="M 5.0932629,438.95439 574.90674,439.19856"
       style="fill:none;stroke:#000000;stroke-width:0.09293361;stroke-linecap:butt;stroke-linejoin:miter;stroke-miterlimit:4;stroke-dasharray:2.23040652, 0.0929336;stroke-dashoffset:0.01858672;stroke-opacity:1;marker-end:none" />
    <ellipse
       style="fill:#ffffff;fill-opacity:1;stroke:#0b0b0b;stroke-width:1.8720001;stroke-linejoin:round;stroke-miterlimit:4;stroke-dasharray:none;stroke-dashoffset:0.02;stroke-opacity:1"
       id="path4869"
       cx="278.57144"
       cy="244.43361"
       rx="5.7315021"
       ry="5.3765411" />
    <flowRoot
       transform="matrix(1.3660348,0,0,1.4072149,84.492476,-860.13874)"
       style="font-style:normal;font-weight:normal;font-size:40px;line-height:125%;font-family:Sans;letter-spacing:0px;word-spacing:0px;fill:#000000;fill-opacity:1;stroke:none"
       id="flowRoot10107-0-6-9-91-7-0-7-8-0-8-2-0-4"
       xml:space="preserve"
       inkscape:transform-center-x="7.1428571"><flowRegion
         id="flowRegion10109-1-4-1-7-1-5-1-0-6-6-1-1-2"><rect
           style="fill:#000000;fill-opacity:1"
           y="780.99219"
           x="140"
           height="9.3220673"
           width="8.6180687"
           id="rect10111-9-4-5-44-6-2-2-2-7-9-9-0-9" /></flowRegion><flowPara
         id="flowPara5780-1-5-0-5-1-4-2-4-0-4-6"
         style="font-weight:bold;font-size:5.77004099px;-inkscape-font-specification:'Sans Bold';text-align:justify;text-anchor:start;fill:#000000;fill-opacity:1">1</flowPara></flowRoot>    <ellipse
       style="fill:#ffffff;fill-opacity:1;stroke:#0b0b0b;stroke-width:1.8720001;stroke-linejoin:round;stroke-miterlimit:4;stroke-dasharray:none;stroke-dashoffset:0.02;stroke-opacity:1"
       id="path4869-0"
       cx="326.07144"
       cy="183.43361"
       rx="5.7315021"
       ry="5.3765411" />
    <flowRoot
       transform="matrix(1.3660348,0,0,1.4072149,131.99248,-921.13873)"
       style="font-style:normal;font-weight:normal;font-size:40px;line-height:125%;font-family:Sans;letter-spacing:0px;word-spacing:0px;fill:#000000;fill-opacity:1;stroke:none"
       id="flowRoot10107-0-6-9-91-7-0-7-8-0-8-2-0-4-6"
       xml:space="preserve"
       inkscape:transform-center-x="7.1428571"><flowRegion
         id="flowRegion10109-1-4-1-7-1-5-1-0-6-6-1-1-2-8"><rect
           style="fill:#000000;fill-opacity:1"
           y="780.99219"
           x="140"
           height="9.3220673"
           width="8.6180687"
           id="rect10111-9-4-5-44-6-2-2-2-7-9-9-0-9-0" /></flowRegion><flowPara
         id="flowPara5780-1-5-0-5-1-4-2-4-0-4-6-9"
         style="font-weight:bold;font-size:5.77004099px;-inkscape-font-specification:'Sans Bold';text-align:justify;text-anchor:start;fill:#000000;fill-opacity:1">1</flowPara></flowRoot>    <ellipse
       style="fill:#ffffff;fill-opacity:1;stroke:#0b0b0b;stroke-width:1.8720001;stroke-linejoin:round;stroke-miterlimit:4;stroke-dasharray:none;stroke-dashoffset:0.02;stroke-opacity:1"
       id="path4869-0-4"
       cx="253.71426"
       cy="330.21933"
       rx="5.7315021"
       ry="5.3765411" />
    <flowRoot
       transform="matrix(1.3660348,0,0,1.4072149,59.635327,-774.35301)"
       style="font-style:normal;font-weight:normal;font-size:40px;line-height:125%;font-family:Sans;letter-spacing:0px;word-spacing:0px;fill:#000000;fill-opacity:1;stroke:none"
       id="flowRoot10107-0-6-9-91-7-0-7-8-0-8-2-0-4-6-7"
       xml:space="preserve"
       inkscape:transform-center-x="7.1428571"><flowRegion
         id="flowRegion10109-1-4-1-7-1-5-1-0-6-6-1-1-2-8-6"><rect
           style="fill:#000000;fill-opacity:1"
           y="780.99219"
           x="140"
           height="9.3220673"
           width="8.6180687"
           id="rect10111-9-4-5-44-6-2-2-2-7-9-9-0-9-0-3" /></flowRegion><flowPara
         id="flowPara5780-1-5-0-5-1-4-2-4-0-4-6-9-7"
         style="font-weight:bold;font-size:5.77004099px;-inkscape-font-specification:'Sans Bold';text-align:justify;text-anchor:start;fill:#000000;fill-opacity:1">2</flowPara></flowRoot>    <ellipse
       style="fill:#ffffff;fill-opacity:1;stroke:#0b0b0b;stroke-width:1.8720001;stroke-linejoin:round;stroke-miterlimit:4;stroke-dasharray:none;stroke-dashoffset:0.02;stroke-opacity:1"
       id="path4869-0-4-6"
       cx="302.92856"
       cy="489.50504"
       rx="5.7315021"
       ry="5.3765411" />
    <flowRoot
       transform="matrix(1.3660348,0,0,1.4072149,108.8496,-615.0673)"
       style="font-style:normal;font-weight:normal;font-size:40px;line-height:125%;font-family:Sans;letter-spacing:0px;word-spacing:0px;fill:#000000;fill-opacity:1;stroke:none"
       id="flowRoot10107-0-6-9-91-7-0-7-8-0-8-2-0-4-6-7-3"
       xml:space="preserve"
       inkscape:transform-center-x="7.1428571"><flowRegion
         id="flowRegion10109-1-4-1-7-1-5-1-0-6-6-1-1-2-8-6-5"><rect
           style="fill:#000000;fill-opacity:1"
           y="780.99219"
           x="140"
           height="9.3220673"
           width="8.6180687"
           id="rect10111-9-4-5-44-6-2-2-2-7-9-9-0-9-0-3-4" /></flowRegion><flowPara
         id="flowPara5780-1-5-0-5-1-4-2-4-0-4-6-9-7-8"
         style="font-weight:bold;font-size:5.77004099px;-inkscape-font-specification:'Sans Bold';text-align:justify;text-anchor:start;fill:#000000;fill-opacity:1">3</flowPara></flowRoot>    <flowRoot
       transform="matrix(1.3660348,0,0,1.4072149,-16.010204,-689.79758)"
       style="font-style:normal;font-weight:normal;font-size:40px;line-height:125%;font-family:Sans;letter-spacing:0px;word-spacing:0px;fill:#000000;fill-opacity:1;stroke:none"
       id="flowRoot10107-0-6-9-91-7-0-7-8-1-3-7-2"
       xml:space="preserve"><flowRegion
         id="flowRegion10109-1-4-1-7-1-5-1-0-1-7-1-6"><rect
           style="fill:#000000;fill-opacity:1"
           y="780.99219"
           x="140"
           height="13.382753"
           width="47.311939"
           id="rect10111-9-4-5-44-6-2-2-2-9-4-6-7" /></flowRegion><flowPara
         id="flowPara5780-1-5-0-5-1-4-9-3-2-1"
         style="font-size:4.32753086px;text-align:justify;text-anchor:start;fill:#000000;fill-opacity:1">T<flowSpan
   style="text-align:center;text-anchor:middle"
   id="flowSpan4065">RANSFO MARKERS</flowSpan></flowPara><flowPara
         style="font-size:4.32753086px;text-align:center;text-anchor:middle;fill:#000000;fill-opacity:1"
         id="flowPara4063">THREAD 0</flowPara></flowRoot>    <rect
       ry="0"
       y="376.65939"
       x="110.42217"
       height="30.691349"
       width="58.441406"
       id="rect6431-1-4-9-4-3-3-2-4-9-0-3-8-9-7"
       style="fill:#ffffff;fill-opacity:1;fill-rule:nonzero;stroke:#000000;stroke-width:0.77623951;stroke-miterlimit:4;stroke-dasharray:none;stroke-opacity:1" />
    <flowRoot
       transform="matrix(1.3660348,0,0,1.4072149,-75.738212,-738.26391)"
       style="font-style:normal;font-weight:normal;font-size:40px;line-height:125%;font-family:Sans;letter-spacing:0px;word-spacing:0px;fill:#000000;fill-opacity:1;stroke:none"
       id="flowRoot10107-0-6-9-91-7-0-7-8-1-7"
       xml:space="preserve"><flowRegion
         id="flowRegion10109-1-4-1-7-1-5-1-0-1-0"><rect
           style="fill:#000000;fill-opacity:1"
           y="780.99219"
           x="140"
           height="15.920715"
           width="121.03939"
           id="rect10111-9-4-5-44-6-2-2-2-9-2" /></flowRegion><flowPara
         id="flowPara5780-1-5-0-5-1-4-9-1"
         style="font-size:7.21255112px;text-align:justify;text-anchor:start;fill:#000000;fill-opacity:1">Result files per thread</flowPara></flowRoot>    <flowRoot
       transform="matrix(1.3660348,0,0,1.4072149,-77.429055,-717.3007)"
       style="font-style:normal;font-weight:normal;font-size:3.60627556px;line-height:125%;font-family:Sans;letter-spacing:0px;word-spacing:0px;fill:#000000;fill-opacity:1;stroke:none"
       id="flowRoot10107-0-6-9-91-7-0-7-8-1-3-7-2-2-3-2"
       xml:space="preserve"><flowRegion
         id="flowRegion10109-1-4-1-7-1-5-1-0-1-7-1-6-1-6-9"><rect
           style="font-size:3.60627556px;fill:#000000;fill-opacity:1"
           y="780.99219"
           x="140"
           height="5.7689438"
           width="46.266159"
           id="rect10111-9-4-5-44-6-2-2-2-9-4-6-7-7-8-6" /></flowRegion><flowPara
         id="flowPara5780-1-5-0-5-1-4-9-3-2-1-1-1-5"
         style="font-size:3.60627556px;text-align:justify;text-anchor:start;fill:#000000;fill-opacity:1">NB - WAIT - WAITOPT</flowPara></flowRoot>    <flowRoot
       transform="matrix(1.3660348,0,0,1.4072149,-76.910025,-710.6585)"
       style="font-style:normal;font-weight:normal;font-size:3.60627556px;line-height:125%;font-family:Sans;letter-spacing:0px;word-spacing:0px;fill:#000000;fill-opacity:1;stroke:none"
       id="flowRoot10107-0-6-9-91-7-0-7-8-1-3-7-2-2-3-0-7"
       xml:space="preserve"><flowRegion
         id="flowRegion10109-1-4-1-7-1-5-1-0-1-7-1-6-1-6-3-8"><rect
           style="font-size:3.60627556px;fill:#000000;fill-opacity:1"
           y="780.99219"
           x="140"
           height="5.7689438"
           width="46.266159"
           id="rect10111-9-4-5-44-6-2-2-2-9-4-6-7-7-8-3-6" /></flowRegion><flowPara
         id="flowPara5780-1-5-0-5-1-4-9-3-2-1-1-1-7-5"
         style="font-size:3.60627556px;text-align:justify;text-anchor:start;fill:#000000;fill-opacity:1">NB - WAIT - WAITOPT</flowPara></flowRoot>    <flowRoot
       transform="matrix(1.3660348,0,0,1.4072149,-55.052885,-703.5156)"
       style="font-style:normal;font-weight:normal;font-size:3.60627556px;line-height:125%;font-family:Sans;letter-spacing:0px;word-spacing:0px;fill:#000000;fill-opacity:1;stroke:none"
       id="flowRoot10107-0-6-9-91-7-0-7-8-1-3-7-2-2-3-0-9-6"
       xml:space="preserve"><flowRegion
         id="flowRegion10109-1-4-1-7-1-5-1-0-1-7-1-6-1-6-3-9-4"><rect
           style="font-size:3.60627556px;fill:#000000;fill-opacity:1"
           y="780.99219"
           x="140"
           height="5.7689438"
           width="46.266159"
           id="rect10111-9-4-5-44-6-2-2-2-9-4-6-7-7-8-3-9-9" /></flowRegion><flowPara
         id="flowPara5780-1-5-0-5-1-4-9-3-2-1-1-1-7-6-3"
         style="font-size:3.60627556px;text-align:justify;text-anchor:start;fill:#000000;fill-opacity:1">...</flowPara></flowRoot>    <rect
       ry="0"
       y="376.4451"
       x="174.35072"
       height="30.691349"
       width="58.441406"
       id="rect6431-1-4-9-4-3-3-2-4-9-0-3-8-9-7-3"
       style="fill:#ffffff;fill-opacity:1;fill-rule:nonzero;stroke:#000000;stroke-width:0.77623951;stroke-miterlimit:4;stroke-dasharray:none;stroke-opacity:1" />
    <flowRoot
       transform="matrix(1.3660348,0,0,1.4072149,-13.500504,-717.51502)"
       style="font-style:normal;font-weight:normal;font-size:3.60627556px;line-height:125%;font-family:Sans;letter-spacing:0px;word-spacing:0px;fill:#000000;fill-opacity:1;stroke:none"
       id="flowRoot10107-0-6-9-91-7-0-7-8-1-3-7-2-2-3-2-5"
       xml:space="preserve"><flowRegion
         id="flowRegion10109-1-4-1-7-1-5-1-0-1-7-1-6-1-6-9-1"><rect
           style="font-size:3.60627556px;fill:#000000;fill-opacity:1"
           y="780.99219"
           x="140"
           height="5.7689438"
           width="46.266159"
           id="rect10111-9-4-5-44-6-2-2-2-9-4-6-7-7-8-6-5" /></flowRegion><flowPara
         id="flowPara5780-1-5-0-5-1-4-9-3-2-1-1-1-5-4"
         style="font-size:3.60627556px;text-align:justify;text-anchor:start;fill:#000000;fill-opacity:1">NB - WAIT - WAITOPT</flowPara></flowRoot>    <flowRoot
       transform="matrix(1.3660348,0,0,1.4072149,-12.981474,-710.87282)"
       style="font-style:normal;font-weight:normal;font-size:3.60627556px;line-height:125%;font-family:Sans;letter-spacing:0px;word-spacing:0px;fill:#000000;fill-opacity:1;stroke:none"
       id="flowRoot10107-0-6-9-91-7-0-7-8-1-3-7-2-2-3-0-7-6"
       xml:space="preserve"><flowRegion
         id="flowRegion10109-1-4-1-7-1-5-1-0-1-7-1-6-1-6-3-8-7"><rect
           style="font-size:3.60627556px;fill:#000000;fill-opacity:1"
           y="780.99219"
           x="140"
           height="5.7689438"
           width="46.266159"
           id="rect10111-9-4-5-44-6-2-2-2-9-4-6-7-7-8-3-6-6" /></flowRegion><flowPara
         id="flowPara5780-1-5-0-5-1-4-9-3-2-1-1-1-7-5-4"
         style="font-size:3.60627556px;text-align:justify;text-anchor:start;fill:#000000;fill-opacity:1">NB - WAIT - WAITOPT</flowPara></flowRoot>    <flowRoot
       transform="matrix(1.3660348,0,0,1.4072149,8.875666,-703.72992)"
       style="font-style:normal;font-weight:normal;font-size:3.60627556px;line-height:125%;font-family:Sans;letter-spacing:0px;word-spacing:0px;fill:#000000;fill-opacity:1;stroke:none"
       id="flowRoot10107-0-6-9-91-7-0-7-8-1-3-7-2-2-3-0-9-6-0"
       xml:space="preserve"><flowRegion
         id="flowRegion10109-1-4-1-7-1-5-1-0-1-7-1-6-1-6-3-9-4-1"><rect
           style="font-size:3.60627556px;fill:#000000;fill-opacity:1"
           y="780.99219"
           x="140"
           height="5.7689438"
           width="46.266159"
           id="rect10111-9-4-5-44-6-2-2-2-9-4-6-7-7-8-3-9-9-7" /></flowRegion><flowPara
         id="flowPara5780-1-5-0-5-1-4-9-3-2-1-1-1-7-6-3-8"
         style="font-size:3.60627556px;text-align:justify;text-anchor:start;fill:#000000;fill-opacity:1">...</flowPara></flowRoot>    <flowRoot
       transform="matrix(1.3660348,0,0,1.4072149,-96.879478,-711.54811)"
       style="font-style:normal;font-weight:normal;font-size:3.60627556px;line-height:125%;font-family:Sans;letter-spacing:0px;word-spacing:0px;fill:#000000;fill-opacity:1;stroke:none"
       id="flowRoot10107-0-6-9-91-7-0-7-8-1-3-7-2-2-3-0-9-6-7"
       xml:space="preserve"><flowRegion
         id="flowRegion10109-1-4-1-7-1-5-1-0-1-7-1-6-1-6-3-9-4-7"><rect
           style="font-size:3.60627556px;fill:#000000;fill-opacity:1"
           y="780.99219"
           x="140"
           height="5.7689438"
           width="46.266159"
           id="rect10111-9-4-5-44-6-2-2-2-9-4-6-7-7-8-3-9-9-5" /></flowRegion><flowPara
         id="flowPara5780-1-5-0-5-1-4-9-3-2-1-1-1-7-6-3-3"
         style="font-size:3.60627556px;text-align:justify;text-anchor:start;fill:#000000;fill-opacity:1">...</flowPara></flowRoot>    <flowRoot
       transform="matrix(1.3660348,0,0,1.4072149,26.17719,-837.36117)"
       style="font-style:normal;font-weight:normal;font-size:40px;line-height:125%;font-family:Sans;letter-spacing:0px;word-spacing:0px;fill:#980000;fill-opacity:1;stroke:none"
       id="flowRoot10107-0-6-9-91-7-0-7-8-1-0-2"
       xml:space="preserve"><flowRegion
         id="flowRegion10109-1-4-1-7-1-5-1-0-1-7-3"><rect
           style="fill:#980000;fill-opacity:1"
           y="780.99219"
           x="140"
           height="8.3068924"
           width="59.338387"
           id="rect10111-9-4-5-44-6-2-2-2-9-9-5" /></flowRegion><flowPara
         id="flowPara5780-1-5-0-5-1-4-9-4-6"
         style="font-size:5.40941334px;text-align:justify;text-anchor:start;fill:#980000;fill-opacity:1">LoadStore</flowPara></flowRoot>    <flowRoot
       transform="matrix(1.3660348,0,0,1.4072149,17.074383,-596.41125)"
       style="font-style:normal;font-weight:normal;font-size:40px;line-height:125%;font-family:Sans;letter-spacing:0px;word-spacing:0px;fill:#980000;fill-opacity:1;stroke:none"
       id="flowRoot10107-0-6-9-91-7-0-7-8-1-0-2-4"
       xml:space="preserve"><flowRegion
         id="flowRegion10109-1-4-1-7-1-5-1-0-1-7-3-8"><rect
           style="fill:#980000;fill-opacity:1"
           y="780.99219"
           x="140"
           height="9.3220615"
           width="76.593742"
           id="rect10111-9-4-5-44-6-2-2-2-9-9-5-4" /></flowRegion><flowPara
         id="flowPara5780-1-5-0-5-1-4-9-4-6-8"
         style="font-size:5.40941334px;text-align:justify;text-anchor:start;fill:#980000;fill-opacity:1">NonblockingOptimizer</flowPara></flowRoot>    <flowRoot
       transform="matrix(1.3660348,0,0,1.4072149,195.301,-767.14906)"
       style="font-style:normal;font-weight:normal;font-size:40px;line-height:125%;font-family:Sans;letter-spacing:0px;word-spacing:0px;fill:#980000;fill-opacity:1;stroke:none"
       id="flowRoot10107-0-6-9-91-7-0-7-8-1-0-2-4-8"
       xml:space="preserve"><flowRegion
         id="flowRegion10109-1-4-1-7-1-5-1-0-1-7-3-8-9"><rect
           style="fill:#980000;fill-opacity:1"
           y="780.99219"
           x="140"
           height="9.3220615"
           width="76.593742"
           id="rect10111-9-4-5-44-6-2-2-2-9-9-5-4-6" /></flowRegion><flowPara
         id="flowPara5780-1-5-0-5-1-4-9-4-6-8-8"
         style="font-size:5.40941334px;text-align:justify;text-anchor:start;fill:#980000;fill-opacity:1">event_record.gz</flowPara></flowRoot>    <path
       inkscape:connector-curvature="0"
       id="path10538-6-9-9-4-4-5-3-6"
       d="m 346.85636,478.41984 16.2488,26.76644"
       style="fill:none;stroke:#000000;stroke-width:0.788;stroke-linecap:butt;stroke-linejoin:miter;stroke-miterlimit:4;stroke-dasharray:none;stroke-dashoffset:0;stroke-opacity:1;marker-end:url(#Arrow2Lend-44)" />
    <rect
       ry="0"
       y="454.42285"
       x="311.32193"
       height="20.309038"
       width="65.79142"
       id="rect6431-1-4-9-4-3-3-2-4-9-0-3-2-3-90-3"
       style="fill:#f5f5f5;fill-opacity:1;fill-rule:nonzero;stroke:#000000;stroke-width:0.26748616;stroke-miterlimit:3.79999995;stroke-dasharray:0.26748615, 0.80245844;stroke-dashoffset:0;stroke-opacity:1" />
    <flowRoot
       transform="matrix(1.3660348,0,0,1.4072149,124.4968,-641.96538)"
       style="font-style:normal;font-weight:normal;font-size:40px;line-height:125%;font-family:Sans;letter-spacing:0px;word-spacing:0px;fill:#000000;fill-opacity:1;stroke:none"
       id="flowRoot10107-0-6-9-91-7-0-7-8-0-8-2-0-3"
       xml:space="preserve"
       inkscape:transform-center-x="7.1428571"><flowRegion
         id="flowRegion10109-1-4-1-7-1-5-1-0-6-6-1-1-3"><rect
           style="fill:#000000;fill-opacity:1"
           y="780.99219"
           x="140"
           height="12.367591"
           width="79.731087"
           id="rect10111-9-4-5-44-6-2-2-2-7-9-9-0-8" /></flowRegion><flowPara
         id="flowPara5780-1-5-0-5-1-4-2-4-0-4-0"
         style="font-size:7.93380642px;text-align:justify;text-anchor:start;fill:#000000;fill-opacity:1">Optimizer</flowPara></flowRoot>    <ellipse
       style="fill:#ffffff;fill-opacity:1;stroke:#0b0b0b;stroke-width:1.8720001;stroke-linejoin:round;stroke-miterlimit:4;stroke-dasharray:none;stroke-dashoffset:0.02;stroke-opacity:1"
       id="path4869-0-7"
       cx="376.42999"
       cy="454.7428"
       rx="5.7315021"
       ry="5.3765411" />
    <flowRoot
       transform="matrix(1.3660348,0,0,1.4072149,182.35105,-649.82957)"
       style="font-style:normal;font-weight:normal;font-size:40px;line-height:125%;font-family:Sans;letter-spacing:0px;word-spacing:0px;fill:#000000;fill-opacity:1;stroke:none"
       id="flowRoot10107-0-6-9-91-7-0-7-8-0-8-2-0-4-6-0"
       xml:space="preserve"
       inkscape:transform-center-x="7.1428571"><flowRegion
         id="flowRegion10109-1-4-1-7-1-5-1-0-6-6-1-1-2-8-61"><rect
           style="fill:#000000;fill-opacity:1"
           y="780.99219"
           x="140"
           height="9.3220673"
           width="8.6180687"
           id="rect10111-9-4-5-44-6-2-2-2-7-9-9-0-9-0-6" /></flowRegion><flowPara
         id="flowPara5780-1-5-0-5-1-4-2-4-0-4-6-9-3"
         style="font-weight:bold;font-size:5.77004099px;-inkscape-font-specification:'Sans Bold';text-align:justify;text-anchor:start;fill:#000000;fill-opacity:1">3</flowPara></flowRoot>  </g>
</svg>
