<?xml version="1.0" encoding="UTF-8" standalone="no"?>
<!-- Created with Inkscape (http://www.inkscape.org/) -->

<svg
   xmlns:dc="http://purl.org/dc/elements/1.1/"
   xmlns:cc="http://creativecommons.org/ns#"
   xmlns:rdf="http://www.w3.org/1999/02/22-rdf-syntax-ns#"
   xmlns:svg="http://www.w3.org/2000/svg"
   xmlns="http://www.w3.org/2000/svg"
   xmlns:sodipodi="http://sodipodi.sourceforge.net/DTD/sodipodi-0.dtd"
   xmlns:inkscape="http://www.inkscape.org/namespaces/inkscape"
   width="210mm"
   height="297mm"
   id="svg3499"
   version="1.1"
   inkscape:version="0.91 r13725"
   sodipodi:docname="UPC.svg">
  <defs
     id="defs3501">
    <marker
       inkscape:stockid="Arrow2Lend"
       orient="auto"
       refY="0.0"
       refX="0.0"
       id="Arrow2Lend"
       style="overflow:visible;">
      <path
         id="path4995"
         style="fill-rule:evenodd;stroke-width:0.62500000;stroke-linejoin:round;"
         d="M 8.7185878,4.0337352 L -2.2072895,0.016013256 L 8.7185884,-4.0017078 C 6.9730900,-1.6296469 6.9831476,1.6157441 8.7185878,4.0337352 z "
         transform="scale(1.1) rotate(180) translate(1,0)" />
    </marker>
    <marker
       inkscape:stockid="Arrow1Lstart-80y"
       orient="auto"
       refY="0"
       refX="0"
       id="Arrow1Lstart-80y"
       style="overflow:visible">
      <path
         inkscape:connector-curvature="0"
         id="path12816"
         d="M 0,0 5,-5 -12.5,0 5,5 0,0 z"
         style="fill:#d40000;fill-rule:evenodd;stroke:#d40000;stroke-width:1pt;marker-start:none"
         transform="matrix(0.8,0,0,0.8,10,0)" />
    </marker>
    <marker
       inkscape:stockid="marker14168-6ql"
       orient="auto"
       refY="0"
       refX="0"
       id="marker14168-6ql"
       style="overflow:visible">
      <path
         inkscape:connector-curvature="0"
         id="path12819"
         d="M 0,0 5,-5 -12.5,0 5,5 0,0 z"
         style="fill:#d40000;fill-rule:evenodd;stroke:#d40000;stroke-width:1pt;marker-start:none"
         transform="matrix(-0.8,0,0,-0.8,-10,0)" />
    </marker>
    <marker
       inkscape:stockid="Arrow1Lstart-8qw"
       orient="auto"
       refY="0"
       refX="0"
       id="Arrow1Lstart-8qw"
       style="overflow:visible">
      <path
         inkscape:connector-curvature="0"
         id="path20274"
         d="M 0,0 5,-5 -12.5,0 5,5 0,0 z"
         style="fill:#d40000;fill-rule:evenodd;stroke:#d40000;stroke-width:1pt;marker-start:none"
         transform="matrix(0.8,0,0,0.8,10,0)" />
    </marker>
    <marker
       inkscape:stockid="marker14168-6m6"
       orient="auto"
       refY="0"
       refX="0"
       id="marker14168-6m6"
       style="overflow:visible">
      <path
         inkscape:connector-curvature="0"
         id="path20277"
         d="M 0,0 5,-5 -12.5,0 5,5 0,0 z"
         style="fill:#d40000;fill-rule:evenodd;stroke:#d40000;stroke-width:1pt;marker-start:none"
         transform="matrix(-0.8,0,0,-0.8,-10,0)" />
    </marker>
    <marker
       inkscape:stockid="Arrow2Lend"
       orient="auto"
       refY="0"
       refX="0"
       id="Arrow2Lend-4"
       style="overflow:visible">
      <path
         inkscape:connector-curvature="0"
         id="path4995-2"
         style="fill-rule:evenodd;stroke-width:0.625;stroke-linejoin:round"
         d="M 8.7185878,4.0337352 -2.2072895,0.01601326 8.7185884,-4.0017078 c -1.7454984,2.3720609 -1.7354408,5.6174519 -6e-7,8.035443 z"
         transform="matrix(-1.1,0,0,-1.1,-1.1,0)" />
    </marker>
    <marker
       inkscape:stockid="Arrow2Lend"
       orient="auto"
       refY="0"
       refX="0"
       id="Arrow2Lend-6"
       style="overflow:visible">
      <path
         inkscape:connector-curvature="0"
         id="path4995-7"
         style="fill-rule:evenodd;stroke-width:0.625;stroke-linejoin:round"
         d="M 8.7185878,4.0337352 -2.2072895,0.01601326 8.7185884,-4.0017078 c -1.7454984,2.3720609 -1.7354408,5.6174519 -6e-7,8.035443 z"
         transform="matrix(-1.1,0,0,-1.1,-1.1,0)" />
    </marker>
    <marker
       inkscape:stockid="Arrow2Lend"
       orient="auto"
       refY="0"
       refX="0"
       id="Arrow2Lend-3"
       style="overflow:visible">
      <path
         inkscape:connector-curvature="0"
         id="path4995-8"
         style="fill-rule:evenodd;stroke-width:0.625;stroke-linejoin:round"
         d="M 8.7185878,4.0337352 -2.2072895,0.01601326 8.7185884,-4.0017078 c -1.7454984,2.3720609 -1.7354408,5.6174519 -6e-7,8.035443 z"
         transform="matrix(-1.1,0,0,-1.1,-1.1,0)" />
    </marker>
    <marker
       inkscape:stockid="Arrow2Lend"
       orient="auto"
       refY="0"
       refX="0"
       id="Arrow2Lend-30"
       style="overflow:visible">
      <path
         inkscape:connector-curvature="0"
         id="path4995-9"
         style="fill-rule:evenodd;stroke-width:0.625;stroke-linejoin:round"
         d="M 8.7185878,4.0337352 -2.2072895,0.01601326 8.7185884,-4.0017078 c -1.7454984,2.3720609 -1.7354408,5.6174519 -6e-7,8.035443 z"
         transform="matrix(-1.1,0,0,-1.1,-1.1,0)" />
    </marker>
    <marker
       inkscape:stockid="Arrow2Lend"
       orient="auto"
       refY="0"
       refX="0"
       id="Arrow2Lend-5"
       style="overflow:visible">
      <path
         inkscape:connector-curvature="0"
         id="path4995-3"
         style="fill-rule:evenodd;stroke-width:0.625;stroke-linejoin:round"
         d="M 8.7185878,4.0337352 -2.2072895,0.01601326 8.7185884,-4.0017078 c -1.7454984,2.3720609 -1.7354408,5.6174519 -6e-7,8.035443 z"
         transform="matrix(-1.1,0,0,-1.1,-1.1,0)" />
    </marker>
    <marker
       inkscape:stockid="Arrow2Lend"
       orient="auto"
       refY="0"
       refX="0"
       id="Arrow2Lend-40"
       style="overflow:visible">
      <path
         inkscape:connector-curvature="0"
         id="path4995-39"
         style="fill-rule:evenodd;stroke-width:0.625;stroke-linejoin:round"
         d="M 8.7185878,4.0337352 -2.2072895,0.01601326 8.7185884,-4.0017078 c -1.7454984,2.3720609 -1.7354408,5.6174519 -6e-7,8.035443 z"
         transform="matrix(-1.1,0,0,-1.1,-1.1,0)" />
    </marker>
    <marker
       inkscape:stockid="Arrow2Lend"
       orient="auto"
       refY="0"
       refX="0"
       id="Arrow2Lend-53"
       style="overflow:visible">
      <path
         inkscape:connector-curvature="0"
         id="path4995-33"
         style="fill-rule:evenodd;stroke-width:0.625;stroke-linejoin:round"
         d="M 8.7185878,4.0337352 -2.2072895,0.01601326 8.7185884,-4.0017078 c -1.7454984,2.3720609 -1.7354408,5.6174519 -6e-7,8.035443 z"
         transform="matrix(-1.1,0,0,-1.1,-1.1,0)" />
    </marker>
    <marker
       inkscape:stockid="Arrow2Lend"
       orient="auto"
       refY="0"
       refX="0"
       id="Arrow2Lend-57"
       style="overflow:visible">
      <path
         inkscape:connector-curvature="0"
         id="path4995-0"
         style="fill-rule:evenodd;stroke-width:0.625;stroke-linejoin:round"
         d="M 8.7185878,4.0337352 -2.2072895,0.01601326 8.7185884,-4.0017078 c -1.7454984,2.3720609 -1.7354408,5.6174519 -6e-7,8.035443 z"
         transform="matrix(-1.1,0,0,-1.1,-1.1,0)" />
    </marker>
    <marker
       inkscape:stockid="Arrow2Lend"
       orient="auto"
       refY="0"
       refX="0"
       id="Arrow2Lend-2"
       style="overflow:visible">
      <path
         inkscape:connector-curvature="0"
         id="path4995-31"
         style="fill-rule:evenodd;stroke-width:0.625;stroke-linejoin:round"
         d="M 8.7185878,4.0337352 -2.2072895,0.01601326 8.7185884,-4.0017078 c -1.7454984,2.3720609 -1.7354408,5.6174519 -6e-7,8.035443 z"
         transform="matrix(-1.1,0,0,-1.1,-1.1,0)" />
    </marker>
    <marker
       inkscape:stockid="Arrow2Lend"
       orient="auto"
       refY="0"
       refX="0"
       id="Arrow2Lend-64"
       style="overflow:visible">
      <path
         inkscape:connector-curvature="0"
         id="path4995-29"
         style="fill-rule:evenodd;stroke-width:0.625;stroke-linejoin:round"
         d="M 8.7185878,4.0337352 -2.2072895,0.01601326 8.7185884,-4.0017078 c -1.7454984,2.3720609 -1.7354408,5.6174519 -6e-7,8.035443 z"
         transform="matrix(-1.1,0,0,-1.1,-1.1,0)" />
    </marker>
  </defs>
  <sodipodi:namedview
     id="base"
     pagecolor="#ffffff"
     bordercolor="#666666"
     borderopacity="1.0"
     inkscape:pageopacity="0.0"
     inkscape:pageshadow="2"
     inkscape:zoom="3.959798"
     inkscape:cx="157.24927"
     inkscape:cy="1005.2936"
     inkscape:document-units="px"
     inkscape:current-layer="layer1"
     showgrid="false"
     inkscape:window-width="1377"
     inkscape:window-height="1143"
     inkscape:window-x="246"
     inkscape:window-y="33"
     inkscape:window-maximized="0" />
  <metadata
     id="metadata3504">
    <rdf:RDF>
      <cc:Work
         rdf:about="">
        <dc:format>image/svg+xml</dc:format>
        <dc:type
           rdf:resource="http://purl.org/dc/dcmitype/StillImage" />
        <dc:title />
      </cc:Work>
    </rdf:RDF>
  </metadata>
  <g
     inkscape:label="Calque 1"
     inkscape:groupmode="layer"
     id="layer1">
    <rect
       ry="0"
       y="99.576042"
       x="25.614801"
       height="15.996406"
       width="66.972839"
       id="rect6431-1-4-9-4-3-3-2-4-9-8"
       style="fill:#ffffff;fill-opacity:1;fill-rule:nonzero;stroke:#000000;stroke-width:0.59991258;stroke-miterlimit:4;stroke-dasharray:none;stroke-opacity:1" />
    <flowRoot
       transform="matrix(1.3660348,0,0,1.4072149,81.250681,-1062.2065)"
       style="font-style:normal;font-weight:normal;font-size:40px;line-height:125%;font-family:Sans;letter-spacing:0px;word-spacing:0px;fill:#000000;fill-opacity:1;stroke:none"
       id="flowRoot10107-0-6-9-91-7-0-7-8"
       xml:space="preserve"><flowRegion
         id="flowRegion10109-1-4-1-7-1-5-1-0"><rect
           style="fill:#000000;fill-opacity:1"
           y="780.99219"
           x="140"
           height="8.347333"
           width="25.751076"
           id="rect10111-9-4-5-44-6-2-2-2" /></flowRegion><flowPara
         id="flowPara5780-1-5-0-5-1-4"
         style="font-size:3.60627556px;text-align:justify;text-anchor:start;fill:#000000;fill-opacity:1"> Shared</flowPara></flowRoot>    <rect
       ry="0"
       y="24.59432"
       x="25.740818"
       height="68.347298"
       width="243.89101"
       id="rect6431-1-4-9-4-3-3-2-4-9-0-3"
       style="fill:#ffffff;fill-opacity:1;fill-rule:nonzero;stroke:#000000;stroke-width:0.69903702;stroke-miterlimit:4;stroke-dasharray:none;stroke-opacity:1" />
    <flowRoot
       transform="matrix(1.3660348,0,0,1.4072149,-147.39303,-976.76273)"
       style="font-style:normal;font-weight:normal;font-size:40px;line-height:125%;font-family:Sans;letter-spacing:0px;word-spacing:0px;fill:#d40000;fill-opacity:1;stroke:none"
       id="flowRoot10107-0-6-9-91-7-0-7-3-3"
       xml:space="preserve"><flowRegion
         id="flowRegion10109-1-4-1-7-1-5-1-5-6"><rect
           style="fill:#d40000;fill-opacity:1"
           y="780.99219"
           x="140"
           height="12.041486"
           width="48.543797"
           id="rect10111-9-4-5-44-6-2-2-4-5" /></flowRegion><flowPara
         id="flowPara5780-1-5-0-5-1-5-8"
         style="font-size:3.60627557px;text-align:justify;text-anchor:start;fill:#000000;fill-opacity:1">Thread 0</flowPara></flowRoot>    <rect
       ry="0"
       y="32.802647"
       x="35.915131"
       height="6.8132291"
       width="7.134397"
       id="rect6431-1-4-9-4-3-3-2-4-9-0-4-4"
       style="fill:#ffffff;fill-opacity:1;fill-rule:nonzero;stroke:#000000;stroke-width:0.12778576;stroke-miterlimit:4;stroke-dasharray:none;stroke-opacity:1" />
    <rect
       ry="0"
       y="32.802647"
       x="43.870087"
       height="6.8132291"
       width="7.134397"
       id="rect6431-1-4-9-4-3-3-2-4-9-0-4-4-7"
       style="fill:#ffffff;fill-opacity:1;fill-rule:nonzero;stroke:#000000;stroke-width:0.12778576;stroke-miterlimit:4;stroke-dasharray:none;stroke-opacity:1" />
    <rect
       ry="0"
       y="32.802647"
       x="52.04911"
       height="6.8132291"
       width="7.134397"
       id="rect6431-1-4-9-4-3-3-2-4-9-0-4-4-7-0"
       style="fill:#ffffff;fill-opacity:1;fill-rule:nonzero;stroke:#000000;stroke-width:0.12778576;stroke-miterlimit:4;stroke-dasharray:none;stroke-opacity:1" />
    <rect
       ry="0"
       y="32.802647"
       x="60.130333"
       height="6.8132291"
       width="7.134397"
       id="rect6431-1-4-9-4-3-3-2-4-9-0-4-4-7-0-7"
       style="fill:#ffffff;fill-opacity:1;fill-rule:nonzero;stroke:#000000;stroke-width:0.12778576;stroke-miterlimit:4;stroke-dasharray:none;stroke-opacity:1" />
    <rect
       ry="0"
       y="40.631321"
       x="35.851997"
       height="6.8132291"
       width="7.134397"
       id="rect6431-1-4-9-4-3-3-2-4-9-0-4-4-6"
       style="fill:#ffffff;fill-opacity:1;fill-rule:nonzero;stroke:#000000;stroke-width:0.12778576;stroke-miterlimit:4;stroke-dasharray:none;stroke-opacity:1" />
    <rect
       ry="0"
       y="40.631321"
       x="43.806946"
       height="6.8132291"
       width="7.134397"
       id="rect6431-1-4-9-4-3-3-2-4-9-0-4-4-7-55"
       style="fill:#ffffff;fill-opacity:1;fill-rule:nonzero;stroke:#000000;stroke-width:0.12778576;stroke-miterlimit:4;stroke-dasharray:none;stroke-opacity:1" />
    <rect
       ry="0"
       y="104.58421"
       x="31.095102"
       height="6.8132291"
       width="7.134397"
       id="rect6431-1-4-9-4-3-3-2-4-9-0-4-4-7-5-9"
       style="fill:#ffffff;fill-opacity:1;fill-rule:nonzero;stroke:#000000;stroke-width:0.12778576;stroke-miterlimit:4;stroke-dasharray:none;stroke-opacity:1" />
    <rect
       ry="0"
       y="104.58421"
       x="39.176315"
       height="6.8132291"
       width="7.134397"
       id="rect6431-1-4-9-4-3-3-2-4-9-0-4-4-7-0-8"
       style="fill:#ffffff;fill-opacity:1;fill-rule:nonzero;stroke:#000000;stroke-width:0.12778576;stroke-miterlimit:4;stroke-dasharray:none;stroke-opacity:1" />
    <rect
       ry="0"
       y="104.58421"
       x="47.257553"
       height="6.8132291"
       width="7.134397"
       id="rect6431-1-4-9-4-3-3-2-4-9-0-4-4-7-0-7-6"
       style="fill:#ffffff;fill-opacity:1;fill-rule:nonzero;stroke:#000000;stroke-width:0.12778576;stroke-miterlimit:4;stroke-dasharray:none;stroke-opacity:1" />
    <rect
       ry="0"
       y="66.384819"
       x="67.298088"
       height="6.8132291"
       width="7.134397"
       id="rect6431-1-4-9-4-3-3-2-4-9-0-4-4-7-0-7-3-0-2-4"
       style="fill:#ffffff;fill-opacity:1;fill-rule:nonzero;stroke:#000000;stroke-width:0.12778576;stroke-miterlimit:4;stroke-dasharray:none;stroke-opacity:1" />
    <rect
       ry="0"
       y="74.956245"
       x="67.298088"
       height="6.8132291"
       width="7.134397"
       id="rect6431-1-4-9-4-3-3-2-4-9-0-4-4-7-0-7-3-0-2-4-8"
       style="fill:#ffffff;fill-opacity:1;fill-rule:nonzero;stroke:#000000;stroke-width:0.12778576;stroke-miterlimit:4;stroke-dasharray:none;stroke-opacity:1" />
    <flowRoot
       transform="matrix(1.3660348,0,0,1.4072149,81.350087,-1028.2182)"
       style="font-style:normal;font-weight:normal;font-size:40px;line-height:125%;font-family:Sans;letter-spacing:0px;word-spacing:0px;fill:#000000;fill-opacity:1;stroke:none"
       id="flowRoot10107-0-6-9-91-7-0-7-8-9"
       xml:space="preserve"><flowRegion
         id="flowRegion10109-1-4-1-7-1-5-1-0-3"><rect
           style="fill:#000000;fill-opacity:1"
           y="780.99219"
           x="140"
           height="5.2965102"
           width="16.877344"
           id="rect10111-9-4-5-44-6-2-2-2-9" /></flowRegion><flowPara
         id="flowPara5780-1-5-0-5-1-4-4"
         style="font-size:3.60627556px;text-align:justify;text-anchor:start;fill:#000000;fill-opacity:1"> Private</flowPara></flowRoot>    <flowRoot
       transform="matrix(1.3660348,0,0,1.4072149,80.895768,-995.62858)"
       style="font-style:normal;font-weight:normal;font-size:40px;line-height:125%;font-family:Sans;letter-spacing:0px;word-spacing:0px;fill:#000000;fill-opacity:1;stroke:none"
       id="flowRoot10107-0-6-9-91-7-0-7-8-5"
       xml:space="preserve"><flowRegion
         id="flowRegion10109-1-4-1-7-1-5-1-0-9"><rect
           style="fill:#000000;fill-opacity:1"
           y="780.99219"
           x="140"
           height="7.0910983"
           width="19.465523"
           id="rect10111-9-4-5-44-6-2-2-2-8" /></flowRegion><flowPara
         id="flowPara5780-1-5-0-5-1-4-7"
         style="font-size:3.60627556px;text-align:justify;text-anchor:start;fill:#000000;fill-opacity:1"> Register</flowPara></flowRoot>    <path
       inkscape:connector-curvature="0"
       id="path10538-6-9"
       d="m 25.597414,58.526143 243.888306,0"
       style="fill:none;stroke:#000000;stroke-width:0.41979462;stroke-linecap:butt;stroke-linejoin:miter;stroke-miterlimit:4;stroke-dasharray:none;stroke-dashoffset:0;stroke-opacity:1" />
    <flowRoot
       transform="matrix(1.3660348,0,0,1.4072149,-66.298241,-1015.0187)"
       style="font-style:normal;font-weight:normal;font-size:40px;line-height:125%;font-family:Sans;letter-spacing:0px;word-spacing:0px;fill:#000000;fill-opacity:1;stroke:none"
       id="flowRoot10107-0-6-9-91-7-0-7-8-5-2"
       xml:space="preserve"><flowRegion
         id="flowRegion10109-1-4-1-7-1-5-1-0-9-8"><rect
           style="fill:#000000;fill-opacity:1"
           y="780.99219"
           x="140"
           height="7.378777"
           width="14.945313"
           id="rect10111-9-4-5-44-6-2-2-2-8-0" /></flowRegion><flowPara
         id="flowPara5780-1-5-0-5-1-4-7-3"
         style="font-size:3.60627556px;text-align:justify;text-anchor:start;fill:#000000;fill-opacity:1">STORE</flowPara></flowRoot>    <flowRoot
       transform="matrix(1.3660348,0,0,1.4072149,-152.5204,-1049.3389)"
       style="font-style:normal;font-weight:normal;font-size:40px;line-height:125%;font-family:Sans;letter-spacing:0px;word-spacing:0px;fill:#000000;fill-opacity:1;stroke:none"
       id="flowRoot10107-0-6-9-91-7-0-7-8-5-2-9"
       xml:space="preserve"><flowRegion
         id="flowRegion10109-1-4-1-7-1-5-1-0-9-8-9"><rect
           style="fill:#000000;fill-opacity:1"
           y="780.99219"
           x="140"
           height="8.8144379"
           width="20.121655"
           id="rect10111-9-4-5-44-6-2-2-2-8-0-4" /></flowRegion><flowPara
         id="flowPara5780-1-5-0-5-1-4-7-3-2"
         style="font-style:normal;font-variant:normal;font-weight:bold;font-stretch:normal;font-size:3.60627556px;font-family:Sans;-inkscape-font-specification:'Sans Bold';text-align:justify;text-anchor:start;fill:#000000;fill-opacity:1">GET</flowPara></flowRoot>    <flowRoot
       transform="matrix(1.3660348,0,0,1.4072149,-112.92597,-1033.7471)"
       style="font-style:normal;font-weight:normal;font-size:40px;line-height:125%;font-family:Sans;letter-spacing:0px;word-spacing:0px;fill:#000000;fill-opacity:1;stroke:none"
       id="flowRoot10107-0-6-9-91-7-0-7-8-5-2-9-7"
       xml:space="preserve"><flowRegion
         id="flowRegion10109-1-4-1-7-1-5-1-0-9-8-9-2"><rect
           style="fill:#000000;fill-opacity:1"
           y="780.99219"
           x="140"
           height="8.8144379"
           width="20.121655"
           id="rect10111-9-4-5-44-6-2-2-2-8-0-4-7" /></flowRegion><flowPara
         id="flowPara5780-1-5-0-5-1-4-7-3-2-9"
         style="font-style:normal;font-variant:normal;font-weight:bold;font-stretch:normal;font-size:3.60627556px;font-family:Sans;-inkscape-font-specification:'Sans Bold';text-align:justify;text-anchor:start;fill:#000000;fill-opacity:1">PUT</flowPara></flowRoot>    <flowRoot
       transform="matrix(1.3660348,0,0,1.4072149,-139.71267,-1014.766)"
       style="font-style:normal;font-weight:normal;font-size:40px;line-height:125%;font-family:Sans;letter-spacing:0px;word-spacing:0px;fill:#000000;fill-opacity:1;stroke:none"
       id="flowRoot10107-0-6-9-91-7-0-7-8-5-2-9-3"
       xml:space="preserve"><flowRegion
         id="flowRegion10109-1-4-1-7-1-5-1-0-9-8-9-8"><rect
           style="fill:#000000;fill-opacity:1"
           y="780.99219"
           x="140"
           height="8.8144379"
           width="20.121655"
           id="rect10111-9-4-5-44-6-2-2-2-8-0-4-9" /></flowRegion><flowPara
         id="flowPara5780-1-5-0-5-1-4-7-3-2-8"
         style="font-size:3.60627556px;text-align:justify;text-anchor:start;fill:#000000;fill-opacity:1">LOAD</flowPara></flowRoot>    <flowRoot
       transform="matrix(1.3660348,0,0,1.4072149,-11.749116,-1065.1669)"
       style="font-style:normal;font-weight:normal;font-size:40px;line-height:125%;font-family:Sans;letter-spacing:0px;word-spacing:0px;fill:#000000;fill-opacity:1;stroke:none"
       id="flowRoot10107-0-6-9-91-7-0-7-8-5-2-3"
       xml:space="preserve"><flowRegion
         id="flowRegion10109-1-4-1-7-1-5-1-0-9-8-0"><rect
           style="fill:#000000;fill-opacity:1"
           y="780.99219"
           x="140"
           height="8.8144379"
           width="20.121655"
           id="rect10111-9-4-5-44-6-2-2-2-8-0-6" /></flowRegion><flowPara
         id="flowPara5780-1-5-0-5-1-4-7-3-6"
         style="font-size:5.40941334px;text-align:justify;text-anchor:start;fill:#000000;fill-opacity:1">...</flowPara></flowRoot>    <flowRoot
       transform="matrix(1.3660348,0,0,1.4072149,-11.358066,-1030.8796)"
       style="font-style:normal;font-weight:normal;font-size:40px;line-height:125%;font-family:Sans;letter-spacing:0px;word-spacing:0px;fill:#000000;fill-opacity:1;stroke:none"
       id="flowRoot10107-0-6-9-91-7-0-7-8-5-2-3-6"
       xml:space="preserve"><flowRegion
         id="flowRegion10109-1-4-1-7-1-5-1-0-9-8-0-6"><rect
           style="fill:#000000;fill-opacity:1"
           y="780.99219"
           x="140"
           height="8.8144379"
           width="20.121655"
           id="rect10111-9-4-5-44-6-2-2-2-8-0-6-9" /></flowRegion><flowPara
         id="flowPara5780-1-5-0-5-1-4-7-3-6-0"
         style="font-size:5.40941334px;text-align:justify;text-anchor:start;fill:#000000;fill-opacity:1">...</flowPara></flowRoot>    <path
       inkscape:connector-curvature="0"
       id="path10538-6-9-9-4-1-0"
       d="M 93.63469,57.942953 93.58799,23.907892"
       style="fill:none;stroke:#000000;stroke-width:0.345;stroke-linecap:butt;stroke-linejoin:miter;stroke-miterlimit:4;stroke-dasharray:0.69, 1.38;stroke-dashoffset:0;stroke-opacity:1" />
    <path
       inkscape:connector-curvature="0"
       id="path10538-6-9-9-4-1-0-5"
       d="m 93.85291,92.451853 -0.0467,-34.03506"
       style="fill:none;stroke:#000000;stroke-width:0.64473361;stroke-linecap:butt;stroke-linejoin:miter;stroke-miterlimit:4;stroke-dasharray:none;stroke-dashoffset:0;stroke-opacity:1" />
    <path
       inkscape:connector-curvature="0"
       id="path10538-6-9-9-4-1-0-3"
       d="m 162.09745,58.483023 -0.0467,-34.035061"
       style="fill:none;stroke:#000000;stroke-width:0.345;stroke-linecap:butt;stroke-linejoin:miter;stroke-miterlimit:4;stroke-dasharray:0.69, 1.38;stroke-dashoffset:0;stroke-opacity:1" />
    <path
       inkscape:connector-curvature="0"
       id="path10538-6-9-9-4-1-0-5-9"
       d="m 162.31567,92.991923 -0.0467,-34.03506"
       style="fill:none;stroke:#000000;stroke-width:0.64473361;stroke-linecap:butt;stroke-linejoin:miter;stroke-miterlimit:4;stroke-dasharray:none;stroke-dashoffset:0;stroke-opacity:1" />
    <path
       inkscape:connector-curvature="0"
       id="path10538-6-9-9-4-1-0-9"
       d="m 201.02602,58.125883 -0.0467,-34.035061"
       style="fill:none;stroke:#000000;stroke-width:0.345;stroke-linecap:butt;stroke-linejoin:miter;stroke-miterlimit:4;stroke-dasharray:0.69, 1.38;stroke-dashoffset:0;stroke-opacity:1" />
    <path
       inkscape:connector-curvature="0"
       id="path10538-6-9-9-4-1-0-5-5"
       d="m 201.24424,92.634783 -0.0467,-34.03506"
       style="fill:none;stroke:#000000;stroke-width:0.64473361;stroke-linecap:butt;stroke-linejoin:miter;stroke-miterlimit:4;stroke-dasharray:none;stroke-dashoffset:0;stroke-opacity:1" />
    <ellipse
       style="fill:none;fill-opacity:1;stroke:#000000;stroke-width:0.29034972;stroke-miterlimit:4;stroke-dasharray:none;stroke-dashoffset:0;stroke-opacity:0.98717945"
       id="path4704"
       cx="54.671654"
       cy="125.4714"
       rx="16.749586"
       ry="7.1358271" />
    <flowRoot
       transform="matrix(0,-1.3660348,1.4072149,0,-1087.315,289.42901)"
       style="font-style:normal;font-weight:normal;font-size:40px;line-height:125%;font-family:Sans;letter-spacing:0px;word-spacing:0px;fill:#d40000;fill-opacity:1;stroke:none"
       id="flowRoot10107-0-6-9-91-7-0-7-3-3-6"
       xml:space="preserve"><flowRegion
         id="flowRegion10109-1-4-1-7-1-5-1-5-6-0"><rect
           style="fill:#d40000;fill-opacity:1"
           y="780.99219"
           x="140"
           height="7.2194157"
           width="60.831703"
           id="rect10111-9-4-5-44-6-2-2-4-5-95" /></flowRegion><flowPara
         id="flowPara5780-1-5-0-5-1-5-8-33"
         style="font-size:5.40941334px;text-align:justify;text-anchor:start;fill:#000000;fill-opacity:1">Global Address Space</flowPara></flowRoot>    <rect
       ry="0"
       y="99.650414"
       x="95.757851"
       height="15.996406"
       width="66.972839"
       id="rect6431-1-4-9-4-3-3-2-4-9-8-7"
       style="fill:#ffffff;fill-opacity:1;fill-rule:nonzero;stroke:#000000;stroke-width:0.59991264;stroke-miterlimit:4;stroke-dasharray:none;stroke-opacity:1" />
    <rect
       ry="0"
       y="99.294891"
       x="201.64473"
       height="15.993099"
       width="67.727142"
       id="rect6431-1-4-9-4-3-3-2-4-9-8-7-7"
       style="fill:#ffffff;fill-opacity:1;fill-rule:nonzero;stroke:#000000;stroke-width:0.60321921;stroke-miterlimit:4;stroke-dasharray:none;stroke-opacity:1" />
    <rect
       ry="0"
       y="33.184803"
       x="105.18633"
       height="6.8132291"
       width="7.134397"
       id="rect6431-1-4-9-4-3-3-2-4-9-0-4-4-84"
       style="fill:#ffffff;fill-opacity:1;fill-rule:nonzero;stroke:#000000;stroke-width:0.12778576;stroke-miterlimit:4;stroke-dasharray:none;stroke-opacity:1" />
    <rect
       ry="0"
       y="33.184803"
       x="113.14129"
       height="6.8132291"
       width="7.134397"
       id="rect6431-1-4-9-4-3-3-2-4-9-0-4-4-7-3"
       style="fill:#ffffff;fill-opacity:1;fill-rule:nonzero;stroke:#000000;stroke-width:0.12778576;stroke-miterlimit:4;stroke-dasharray:none;stroke-opacity:1" />
    <rect
       ry="0"
       y="33.184803"
       x="121.32032"
       height="6.8132291"
       width="7.134397"
       id="rect6431-1-4-9-4-3-3-2-4-9-0-4-4-7-0-78"
       style="fill:#ffffff;fill-opacity:1;fill-rule:nonzero;stroke:#000000;stroke-width:0.12778576;stroke-miterlimit:4;stroke-dasharray:none;stroke-opacity:1" />
    <rect
       ry="0"
       y="33.184803"
       x="129.40155"
       height="6.8132291"
       width="7.134397"
       id="rect6431-1-4-9-4-3-3-2-4-9-0-4-4-7-0-7-4"
       style="fill:#ffffff;fill-opacity:1;fill-rule:nonzero;stroke:#000000;stroke-width:0.12778576;stroke-miterlimit:4;stroke-dasharray:none;stroke-opacity:1" />
    <rect
       ry="0"
       y="41.01347"
       x="105.1232"
       height="6.8132291"
       width="7.134397"
       id="rect6431-1-4-9-4-3-3-2-4-9-0-4-4-6-9"
       style="fill:#ffffff;fill-opacity:1;fill-rule:nonzero;stroke:#000000;stroke-width:0.12778576;stroke-miterlimit:4;stroke-dasharray:none;stroke-opacity:1" />
    <rect
       ry="0"
       y="41.01347"
       x="113.07815"
       height="6.8132291"
       width="7.134397"
       id="rect6431-1-4-9-4-3-3-2-4-9-0-4-4-7-55-9"
       style="fill:#ffffff;fill-opacity:1;fill-rule:nonzero;stroke:#000000;stroke-width:0.12778576;stroke-miterlimit:4;stroke-dasharray:none;stroke-opacity:1" />
    <rect
       ry="0"
       y="34.151627"
       x="211.53349"
       height="6.8132291"
       width="7.134397"
       id="rect6431-1-4-9-4-3-3-2-4-9-0-4-4-4"
       style="fill:#ffffff;fill-opacity:1;fill-rule:nonzero;stroke:#000000;stroke-width:0.12778576;stroke-miterlimit:4;stroke-dasharray:none;stroke-opacity:1" />
    <rect
       ry="0"
       y="34.151627"
       x="219.48845"
       height="6.8132291"
       width="7.134397"
       id="rect6431-1-4-9-4-3-3-2-4-9-0-4-4-7-43"
       style="fill:#ffffff;fill-opacity:1;fill-rule:nonzero;stroke:#000000;stroke-width:0.12778576;stroke-miterlimit:4;stroke-dasharray:none;stroke-opacity:1" />
    <rect
       ry="0"
       y="34.151627"
       x="227.66747"
       height="6.8132291"
       width="7.134397"
       id="rect6431-1-4-9-4-3-3-2-4-9-0-4-4-7-0-79"
       style="fill:#ffffff;fill-opacity:1;fill-rule:nonzero;stroke:#000000;stroke-width:0.12778576;stroke-miterlimit:4;stroke-dasharray:none;stroke-opacity:1" />
    <rect
       ry="0"
       y="34.151627"
       x="235.7487"
       height="6.8132291"
       width="7.134397"
       id="rect6431-1-4-9-4-3-3-2-4-9-0-4-4-7-0-7-2"
       style="fill:#ffffff;fill-opacity:1;fill-rule:nonzero;stroke:#000000;stroke-width:0.12778576;stroke-miterlimit:4;stroke-dasharray:none;stroke-opacity:1" />
    <rect
       ry="0"
       y="41.980309"
       x="211.47035"
       height="6.8132291"
       width="7.134397"
       id="rect6431-1-4-9-4-3-3-2-4-9-0-4-4-6-3"
       style="fill:#ffffff;fill-opacity:1;fill-rule:nonzero;stroke:#000000;stroke-width:0.12778576;stroke-miterlimit:4;stroke-dasharray:none;stroke-opacity:1" />
    <rect
       ry="0"
       y="41.980309"
       x="219.42531"
       height="6.8132291"
       width="7.134397"
       id="rect6431-1-4-9-4-3-3-2-4-9-0-4-4-7-55-6"
       style="fill:#ffffff;fill-opacity:1;fill-rule:nonzero;stroke:#000000;stroke-width:0.12778576;stroke-miterlimit:4;stroke-dasharray:none;stroke-opacity:1" />
    <rect
       ry="0"
       y="65.915108"
       x="35.771828"
       height="6.8132291"
       width="7.134397"
       id="rect6431-1-4-9-4-3-3-2-4-9-0-4-4-7-0-7-3-0-2-4-1"
       style="fill:#ffffff;fill-opacity:1;fill-rule:nonzero;stroke:#000000;stroke-width:0.12778576;stroke-miterlimit:4;stroke-dasharray:none;stroke-opacity:1" />
    <rect
       ry="0"
       y="74.486519"
       x="35.771828"
       height="6.8132291"
       width="7.134397"
       id="rect6431-1-4-9-4-3-3-2-4-9-0-4-4-7-0-7-3-0-2-4-8-3"
       style="fill:#ffffff;fill-opacity:1;fill-rule:nonzero;stroke:#000000;stroke-width:0.12778576;stroke-miterlimit:4;stroke-dasharray:none;stroke-opacity:1" />
    <rect
       ry="0"
       y="65.915108"
       x="46.378441"
       height="6.8132291"
       width="7.134397"
       id="rect6431-1-4-9-4-3-3-2-4-9-0-4-4-7-0-7-3-0-2-4-4"
       style="fill:#ffffff;fill-opacity:1;fill-rule:nonzero;stroke:#000000;stroke-width:0.12778576;stroke-miterlimit:4;stroke-dasharray:none;stroke-opacity:1" />
    <rect
       ry="0"
       y="74.486519"
       x="46.378441"
       height="6.8132291"
       width="7.134397"
       id="rect6431-1-4-9-4-3-3-2-4-9-0-4-4-7-0-7-3-0-2-4-8-2"
       style="fill:#ffffff;fill-opacity:1;fill-rule:nonzero;stroke:#000000;stroke-width:0.12778576;stroke-miterlimit:4;stroke-dasharray:none;stroke-opacity:1" />
    <rect
       ry="0"
       y="104.0409"
       x="111.00788"
       height="6.8132291"
       width="7.134397"
       id="rect6431-1-4-9-4-3-3-2-4-9-0-4-4-7-5-9-0"
       style="fill:#ffffff;fill-opacity:1;fill-rule:nonzero;stroke:#000000;stroke-width:0.12778576;stroke-miterlimit:4;stroke-dasharray:none;stroke-opacity:1" />
    <rect
       ry="0"
       y="104.0409"
       x="119.08909"
       height="6.8132291"
       width="7.134397"
       id="rect6431-1-4-9-4-3-3-2-4-9-0-4-4-7-0-8-54"
       style="fill:#ffffff;fill-opacity:1;fill-rule:nonzero;stroke:#000000;stroke-width:0.12778576;stroke-miterlimit:4;stroke-dasharray:none;stroke-opacity:1" />
    <rect
       ry="0"
       y="104.0409"
       x="127.17033"
       height="6.8132291"
       width="7.134397"
       id="rect6431-1-4-9-4-3-3-2-4-9-0-4-4-7-0-7-6-4"
       style="fill:#ffffff;fill-opacity:1;fill-rule:nonzero;stroke:#000000;stroke-width:0.12778576;stroke-miterlimit:4;stroke-dasharray:none;stroke-opacity:1" />
    <rect
       ry="0"
       y="103.53587"
       x="209.07645"
       height="6.8132291"
       width="7.134397"
       id="rect6431-1-4-9-4-3-3-2-4-9-0-4-4-7-5-9-3"
       style="fill:#ffffff;fill-opacity:1;fill-rule:nonzero;stroke:#000000;stroke-width:0.12778576;stroke-miterlimit:4;stroke-dasharray:none;stroke-opacity:1" />
    <rect
       ry="0"
       y="103.53587"
       x="217.15765"
       height="6.8132291"
       width="7.134397"
       id="rect6431-1-4-9-4-3-3-2-4-9-0-4-4-7-0-8-52"
       style="fill:#ffffff;fill-opacity:1;fill-rule:nonzero;stroke:#000000;stroke-width:0.12778576;stroke-miterlimit:4;stroke-dasharray:none;stroke-opacity:1" />
    <rect
       ry="0"
       y="103.53587"
       x="225.23889"
       height="6.8132291"
       width="7.134397"
       id="rect6431-1-4-9-4-3-3-2-4-9-0-4-4-7-0-7-6-8"
       style="fill:#ffffff;fill-opacity:1;fill-rule:nonzero;stroke:#000000;stroke-width:0.12778576;stroke-miterlimit:4;stroke-dasharray:none;stroke-opacity:1" />
    <rect
       ry="0"
       y="66.149971"
       x="140.93347"
       height="6.8132291"
       width="7.134397"
       id="rect6431-1-4-9-4-3-3-2-4-9-0-4-4-7-0-7-3-0-2-4-41"
       style="fill:#ffffff;fill-opacity:1;fill-rule:nonzero;stroke:#000000;stroke-width:0.12778576;stroke-miterlimit:4;stroke-dasharray:none;stroke-opacity:1" />
    <rect
       ry="0"
       y="74.721382"
       x="140.93347"
       height="6.8132291"
       width="7.134397"
       id="rect6431-1-4-9-4-3-3-2-4-9-0-4-4-7-0-7-3-0-2-4-8-79"
       style="fill:#ffffff;fill-opacity:1;fill-rule:nonzero;stroke:#000000;stroke-width:0.12778576;stroke-miterlimit:4;stroke-dasharray:none;stroke-opacity:1" />
    <rect
       ry="0"
       y="65.680244"
       x="109.4072"
       height="6.8132291"
       width="7.134397"
       id="rect6431-1-4-9-4-3-3-2-4-9-0-4-4-7-0-7-3-0-2-4-1-9"
       style="fill:#ffffff;fill-opacity:1;fill-rule:nonzero;stroke:#000000;stroke-width:0.12778576;stroke-miterlimit:4;stroke-dasharray:none;stroke-opacity:1" />
    <rect
       ry="0"
       y="74.251656"
       x="109.4072"
       height="6.8132291"
       width="7.134397"
       id="rect6431-1-4-9-4-3-3-2-4-9-0-4-4-7-0-7-3-0-2-4-8-3-0"
       style="fill:#ffffff;fill-opacity:1;fill-rule:nonzero;stroke:#000000;stroke-width:0.12778576;stroke-miterlimit:4;stroke-dasharray:none;stroke-opacity:1" />
    <rect
       ry="0"
       y="65.680244"
       x="120.01382"
       height="6.8132291"
       width="7.134397"
       id="rect6431-1-4-9-4-3-3-2-4-9-0-4-4-7-0-7-3-0-2-4-4-7"
       style="fill:#ffffff;fill-opacity:1;fill-rule:nonzero;stroke:#000000;stroke-width:0.12778576;stroke-miterlimit:4;stroke-dasharray:none;stroke-opacity:1" />
    <rect
       ry="0"
       y="74.251656"
       x="120.01382"
       height="6.8132291"
       width="7.134397"
       id="rect6431-1-4-9-4-3-3-2-4-9-0-4-4-7-0-7-3-0-2-4-8-2-4"
       style="fill:#ffffff;fill-opacity:1;fill-rule:nonzero;stroke:#000000;stroke-width:0.12778576;stroke-miterlimit:4;stroke-dasharray:none;stroke-opacity:1" />
    <rect
       ry="0"
       y="66.149948"
       x="245.48424"
       height="6.8132291"
       width="7.134397"
       id="rect6431-1-4-9-4-3-3-2-4-9-0-4-4-7-0-7-3-0-2-4-6"
       style="fill:#ffffff;fill-opacity:1;fill-rule:nonzero;stroke:#000000;stroke-width:0.12778576;stroke-miterlimit:4;stroke-dasharray:none;stroke-opacity:1" />
    <rect
       ry="0"
       y="74.721375"
       x="245.48424"
       height="6.8132291"
       width="7.134397"
       id="rect6431-1-4-9-4-3-3-2-4-9-0-4-4-7-0-7-3-0-2-4-8-70"
       style="fill:#ffffff;fill-opacity:1;fill-rule:nonzero;stroke:#000000;stroke-width:0.12778576;stroke-miterlimit:4;stroke-dasharray:none;stroke-opacity:1" />
    <rect
       ry="0"
       y="65.680237"
       x="213.95796"
       height="6.8132291"
       width="7.134397"
       id="rect6431-1-4-9-4-3-3-2-4-9-0-4-4-7-0-7-3-0-2-4-1-5"
       style="fill:#ffffff;fill-opacity:1;fill-rule:nonzero;stroke:#000000;stroke-width:0.12778576;stroke-miterlimit:4;stroke-dasharray:none;stroke-opacity:1" />
    <rect
       ry="0"
       y="74.251648"
       x="213.95796"
       height="6.8132291"
       width="7.134397"
       id="rect6431-1-4-9-4-3-3-2-4-9-0-4-4-7-0-7-3-0-2-4-8-3-6"
       style="fill:#ffffff;fill-opacity:1;fill-rule:nonzero;stroke:#000000;stroke-width:0.12778576;stroke-miterlimit:4;stroke-dasharray:none;stroke-opacity:1" />
    <rect
       ry="0"
       y="65.680237"
       x="224.56459"
       height="6.8132291"
       width="7.134397"
       id="rect6431-1-4-9-4-3-3-2-4-9-0-4-4-7-0-7-3-0-2-4-4-3"
       style="fill:#ffffff;fill-opacity:1;fill-rule:nonzero;stroke:#000000;stroke-width:0.12778576;stroke-miterlimit:4;stroke-dasharray:none;stroke-opacity:1" />
    <rect
       ry="0"
       y="74.251648"
       x="224.56459"
       height="6.8132291"
       width="7.134397"
       id="rect6431-1-4-9-4-3-3-2-4-9-0-4-4-7-0-7-3-0-2-4-8-2-41"
       style="fill:#ffffff;fill-opacity:1;fill-rule:nonzero;stroke:#000000;stroke-width:0.12778576;stroke-miterlimit:4;stroke-dasharray:none;stroke-opacity:1" />
    <path
       inkscape:connector-curvature="0"
       id="path10538-6-9-9-4-4-0-2"
       d="M 70.862056,69.839971 116.00422,37.329975"
       style="fill:none;stroke:#000000;stroke-width:0.44918078;stroke-linecap:butt;stroke-linejoin:miter;stroke-miterlimit:4;stroke-dasharray:none;stroke-dashoffset:0;stroke-opacity:1;marker-end:url(#Arrow2Lend-40)" />
    <path
       inkscape:connector-curvature="0"
       id="path10538-6-9-9-4-4-0"
       d="m 56.068514,35.122593 -5.64553,33.93585"
       style="fill:none;stroke:#000000;stroke-width:0.458;stroke-linecap:butt;stroke-linejoin:miter;stroke-miterlimit:4;stroke-dasharray:none;stroke-dashoffset:0;stroke-opacity:1;marker-end:url(#Arrow2Lend)" />
    <path
       inkscape:connector-curvature="0"
       id="path10538-6-9-9-4-7-3"
       d="m 49.968944,70.498803 -0.0816,37.291427"
       style="fill:none;stroke:#000000;stroke-width:0.45199999;stroke-linecap:butt;stroke-linejoin:miter;stroke-miterlimit:4;stroke-dasharray:none;stroke-dashoffset:0;stroke-opacity:1;marker-end:url(#Arrow2Lend-53)"
       inkscape:transform-center-x="5.0284981"
       inkscape:transform-center-y="2.2254885" />
    <path
       inkscape:connector-curvature="0"
       id="path10538-6-9-9-4"
       d="m 123.01991,108.18257 0.49082,-31.002887"
       style="fill:none;stroke:#000000;stroke-width:0.43099999;stroke-linecap:butt;stroke-linejoin:miter;stroke-miterlimit:4;stroke-dasharray:none;stroke-dashoffset:0;stroke-opacity:1;marker-end:url(#Arrow2Lend)" />
    <path
       inkscape:connector-curvature="0"
       id="path10538-6-9-9-4-4-0-7"
       d="M 186.24585,46.225949 214.37377,46.08813"
       style="fill:none;stroke:#000000;stroke-width:0.42673561;stroke-linecap:butt;stroke-linejoin:miter;stroke-miterlimit:4;stroke-dasharray:none;stroke-dashoffset:0;stroke-opacity:1;marker-end:url(#Arrow2Lend-2)" />
    <flowRoot
       transform="matrix(1.3660348,0,0,1.4072149,-4.3136379,-1050.6316)"
       style="font-style:normal;font-weight:normal;font-size:40px;line-height:125%;font-family:Sans;letter-spacing:0px;word-spacing:0px;fill:#000000;fill-opacity:1;stroke:none"
       id="flowRoot10107-0-6-9-91-7-0-7-8-5-2-9-7-34"
       xml:space="preserve"><flowRegion
         id="flowRegion10109-1-4-1-7-1-5-1-0-9-8-9-2-6"><rect
           style="fill:#000000;fill-opacity:1"
           y="780.99219"
           x="140"
           height="8.8144379"
           width="20.121655"
           id="rect10111-9-4-5-44-6-2-2-2-8-0-4-7-4" /></flowRegion><flowPara
         id="flowPara5780-1-5-0-5-1-4-7-3-2-9-6"
         style="font-style:normal;font-variant:normal;font-weight:bold;font-stretch:normal;font-size:3.60627556px;font-family:Sans;-inkscape-font-specification:'Sans Bold';text-align:justify;text-anchor:start;fill:#000000;fill-opacity:1">CPY</flowPara></flowRoot>    <rect
       style="fill:none;fill-opacity:1;stroke:#000000;stroke-width:0.46832141;stroke-miterlimit:4;stroke-dasharray:0.93664296, 1.87328594;stroke-dashoffset:0;stroke-opacity:0.98717945"
       id="rect5022"
       width="62.888676"
       height="46.726234"
       x="27.718933"
       y="9.7119427"
       ry="9.1434126" />
    <flowRoot
       transform="matrix(1.3660348,0,0,1.4072149,-152.95241,-1088.1762)"
       style="font-style:normal;font-weight:normal;font-size:40px;line-height:125%;font-family:Sans;letter-spacing:0px;word-spacing:0px;fill:#000000;fill-opacity:1;stroke:none"
       id="flowRoot10107-0-6-9-91-7-0-7-8-5-2-8"
       xml:space="preserve"><flowRegion
         id="flowRegion10109-1-4-1-7-1-5-1-0-9-8-7"><rect
           style="fill:#000000;fill-opacity:1"
           y="780.99219"
           x="140"
           height="9.6118956"
           width="31.611149"
           id="rect10111-9-4-5-44-6-2-2-2-8-0-5" /></flowRegion><flowPara
         id="flowPara5780-1-5-0-5-1-4-7-3-8"
         style="font-size:3.60627556px;text-align:center;text-anchor:middle;fill:#000000;fill-opacity:1">data affinity with thread 0</flowPara></flowRoot>    <flowRoot
       transform="matrix(1.3660348,0,0,1.4072149,-71.50246,-976.68685)"
       style="font-style:normal;font-weight:normal;font-size:40px;line-height:125%;font-family:Sans;letter-spacing:0px;word-spacing:0px;fill:#d40000;fill-opacity:1;stroke:none"
       id="flowRoot10107-0-6-9-91-7-0-7-3-3-63"
       xml:space="preserve"><flowRegion
         id="flowRegion10109-1-4-1-7-1-5-1-5-6-3"><rect
           style="fill:#d40000;fill-opacity:1"
           y="780.99219"
           x="140"
           height="12.041486"
           width="48.543797"
           id="rect10111-9-4-5-44-6-2-2-4-5-3" /></flowRegion><flowPara
         id="flowPara5780-1-5-0-5-1-5-8-5"
         style="font-size:3.60627556px;text-align:justify;text-anchor:start;fill:#000000;fill-opacity:1">Thread 1</flowPara></flowRoot>    <ellipse
       style="fill:none;fill-opacity:1;stroke:#000000;stroke-width:0.29034972;stroke-miterlimit:4;stroke-dasharray:none;stroke-dashoffset:0;stroke-opacity:0.98717945"
       id="path4704-2"
       cx="130.56221"
       cy="125.54725"
       rx="16.749586"
       ry="7.1358271" />
    <flowRoot
       transform="matrix(1.3660348,0,0,1.4072149,31.280558,-977.44447)"
       style="font-style:normal;font-weight:normal;font-size:40px;line-height:125%;font-family:Sans;letter-spacing:0px;word-spacing:0px;fill:#d40000;fill-opacity:1;stroke:none"
       id="flowRoot10107-0-6-9-91-7-0-7-3-3-1"
       xml:space="preserve"><flowRegion
         id="flowRegion10109-1-4-1-7-1-5-1-5-6-4"><rect
           style="fill:#d40000;fill-opacity:1"
           y="780.99219"
           x="140"
           height="12.041486"
           width="48.543797"
           id="rect10111-9-4-5-44-6-2-2-4-5-2" /></flowRegion><flowPara
         id="flowPara5780-1-5-0-5-1-5-8-7"
         style="font-size:3.60627556px;text-align:justify;text-anchor:start;fill:#000000;fill-opacity:1">Thread N-1</flowPara></flowRoot>    <ellipse
       style="fill:none;fill-opacity:1;stroke:#000000;stroke-width:0.29034972;stroke-miterlimit:4;stroke-dasharray:none;stroke-dashoffset:0;stroke-opacity:0.98717945"
       id="path4704-7"
       cx="235.61809"
       cy="124.78963"
       rx="16.749586"
       ry="7.1358271" />
  </g>
</svg>
