\relax 
\citation{Bell:2006}
\citation{Nishtala:2009}
\citation{Bell:2006}
\citation{Nishtala:2009}
\citation{Shan:2015}
\citation{Iancu:2008}
\citation{Chen:2005}
\citation{upc}
\citation{gasnet}
\citation{LLVMwebsite}
\@writefile{toc}{\contentsline {section}{\numberline {I}Introduction}{1}}
\citation{shmem}
\citation{mpi}
\citation{x10}
\citation{chapel}
\citation{crayxc}
\citation{crayxc}
\citation{upcc}
\citation{shmem}
\citation{pami}
\citation{mpi}
\citation{upc}
\citation{x10}
\citation{chapel}
\citation{bupc}
\@writefile{toc}{\contentsline {section}{\numberline {II}Background and Motivation}{2}}
\newlabel{sec:bm}{{II}{2}}
\citation{Bell:2006}
\citation{Nishtala:2009}
\citation{Hoefler2007}
\@writefile{toc}{\contentsline {subsection}{\numberline {\unhbox \voidb@x \hbox {II-A}}Optimizing One-Sided Communication}{3}}
\@writefile{toc}{\contentsline {section}{\numberline {III}Transformations to Maximize Overlap}{3}}
\newlabel{sec:trans}{{III}{3}}
\citation{Shan:2015}
\citation{Husbands:2007}
\citation{Shan:2015}
\@writefile{lof}{\contentsline {figure}{\numberline {1}{\ignorespaces  Overlap example.}}{4}}
\newlabel{fig:overlap}{{1}{4}}
\@writefile{toc}{\contentsline {subsection}{\numberline {\unhbox \voidb@x \hbox {III-A}}Complex Overlap Transformations}{4}}
\@writefile{toc}{\contentsline {section}{\numberline {IV}Implementation of Dynamic Analysis Toolchain}{4}}
\newlabel{sec:contrib1}{{IV}{4}}
\citation{LLVMwebsite}
\@writefile{toc}{\contentsline {subsection}{\numberline {\unhbox \voidb@x \hbox {IV-A}}Trace File Generation}{5}}
\@writefile{toc}{\contentsline {subsection}{\numberline {\unhbox \voidb@x \hbox {IV-B}}Trace File Analysis}{5}}
\@writefile{toc}{\contentsline {subsubsection}{\numberline {\unhbox \voidb@x \hbox {IV-B}1}Maximal Overlap Analysis}{5}}
\@writefile{lot}{\contentsline {table}{\numberline {I}{\ignorespaces Event association: $la$ = local address, $sa$ = shared address, $t$ = time stamp, $tid$ = thread, $loc$ = source location}}{5}}
\newlabel{tab:TFA}{{I}{5}}
\@writefile{lof}{\contentsline {figure}{\numberline {2}{\ignorespaces Code transformation for maximal overlap with respect to local dependencies.}}{5}}
\newlabel{fig:optim}{{2}{5}}
\@writefile{toc}{\contentsline {subsubsection}{\numberline {\unhbox \voidb@x \hbox {IV-B}2}Optimizing Across Barriers and Bespoke Synchronization}{5}}
\citation{edison}
\citation{aries}
\citation{shepard}
\citation{shepard}
\citation{LLVMwebsite}
\citation{BUPCwebsite}
\citation{SC12_CAMG}
\citation{MGwebsite}
\citation{Georganas2015}
\citation{Meracoulouswebsite}
\citation{npb}
\citation{npb}
\@writefile{toc}{\contentsline {section}{\numberline {V}Code Generation and Runtime Support}{6}}
\newlabel{sec:runtime}{{V}{6}}
\@writefile{lof}{\contentsline {figure}{\numberline {3}{\ignorespaces Communication overlap code generation.{\it  wait\_op} needs to move from the original source position to the new position before $WRITE$. }}{6}}
\newlabel{fig:rules}{{3}{6}}
\@writefile{toc}{\contentsline {subsection}{\numberline {\unhbox \voidb@x \hbox {V-A}}Practical Usage Considerations}{6}}
\@writefile{toc}{\contentsline {section}{\numberline {VI}Experimental Results}{6}}
\newlabel{sec:results}{{VI}{6}}
\citation{miniGMG_website}
\citation{SC12_CAMG}
\citation{TechReport_miniGMG}
\citation{Georganas2015}
\citation{Luo:2012}
\@writefile{toc}{\contentsline {subsection}{\numberline {\unhbox \voidb@x \hbox {VI-A}}Benchmarks Description}{7}}
\@writefile{toc}{\contentsline {subsubsection}{\numberline {\unhbox \voidb@x \hbox {VI-A}1}miniGMG}{7}}
\@writefile{toc}{\contentsline {subsubsection}{\numberline {\unhbox \voidb@x \hbox {VI-A}2}Meraculous Genome Assembler}{7}}
\@writefile{toc}{\contentsline {subsection}{\numberline {\unhbox \voidb@x \hbox {VI-B}}Performance Evaluation}{7}}
\@writefile{toc}{\contentsline {subsubsection}{\numberline {\unhbox \voidb@x \hbox {VI-B}1}Maximal Overlap Results}{7}}
\@writefile{toc}{\contentsline {subsubsection}{\numberline {\unhbox \voidb@x \hbox {VI-B}2}Optimizing Across Barriers and Bespoke Synchronization}{7}}
\@writefile{lof}{\contentsline {figure}{\numberline {4}{\ignorespaces Execution-time for blocking, nonblocking and optimized versions of NAS BT, Class D (Strong scaling). Results obtained on Edison.}}{8}}
\newlabel{fig:BvsNBvsOPT_NASBT_total}{{4}{8}}
\@writefile{lof}{\contentsline {figure}{\numberline {5}{\ignorespaces Time spent in communication for NAS BT, Class D (Strong scaling). Results obtained on Edison.}}{8}}
\newlabel{fig:BvsNBvsOPT_NASBT}{{5}{8}}
\@writefile{lof}{\contentsline {figure}{\numberline {6}{\ignorespaces Time spent in communication for blocking and optimized versions of HipMer. Results obtained on Edison.}}{8}}
\newlabel{fig:BvsNB_hipmer}{{6}{8}}
\@writefile{lof}{\contentsline {figure}{\numberline {7}{\ignorespaces Speedup in communication when using nonblocking communication and our optimized version that delays synchronizations into nonblocking barriers of miniGMG, IMM version, (weak scaling). Results obtained on Edison.}}{8}}
\newlabel{fig:IMM_miniGMG_BAR}{{7}{8}}
\@writefile{lof}{\contentsline {figure}{\numberline {8}{\ignorespaces Speedup in communication when using nonblocking communication and our optimized version that delays synchronizations across semaphores of miniGMG, AGG version PCDB (weak scaling) Results obtained on Edison.}}{8}}
\newlabel{fig:AGG_miniGMG}{{8}{8}}
\@writefile{toc}{\contentsline {subsubsection}{\numberline {\unhbox \voidb@x \hbox {VI-B}3}Analysis Overhead}{8}}
\citation{mpas}
\citation{ctf}
\citation{mfdn}
\@writefile{lof}{\contentsline {figure}{\numberline {9}{\ignorespaces Speedup in communication when using nonblocking communication and our optimized version of miniGMG, AGG version PC (weak scaling). Results obtained on Shepard.}}{9}}
\newlabel{fig:AGG_miniGMG_S}{{9}{9}}
\@writefile{lof}{\contentsline {figure}{\numberline {10}{\ignorespaces Speedup in communication when using nonblocking communication and our optimized version of miniGMG, IMM version PCDB (weak scaling). Results obtained on Edison.}}{9}}
\newlabel{fig:IMM_miniGMG}{{10}{9}}
\@writefile{lot}{\contentsline {table}{\numberline {II}{\ignorespaces Execution-time overhead induced by the tool to generate a trace file.}}{9}}
\newlabel{tab:EXECtime}{{II}{9}}
\@writefile{toc}{\contentsline {section}{\numberline {VII}Discussion}{9}}
\citation{su95advanced}
\citation{hpf}
\citation{GSS96}
\citation{fortran-d}
\citation{kandemir99global}
\citation{rice-coalescing}
\citation{CGC96}
\citation{ZH98}
\citation{Chen:2005}
\citation{Iancu:2008}
\citation{hcmpi}
\citation{Nguyen:2012}
\citation{upcc}
\citation{milind}
\citation{Bell:2006}
\citation{Nishtala:2009}
\citation{Shan:2015}
\citation{Hoefler2007}
\citation{SudarsanBCKMOZS11}
\citation{Hayashi:2015}
\@writefile{toc}{\contentsline {section}{\numberline {VIII}Related Work}{10}}
\newlabel{sec:related}{{VIII}{10}}
\@writefile{toc}{\contentsline {section}{\numberline {IX}Conclusion}{10}}
\newlabel{sec:conclusion}{{IX}{10}}
\bibstyle{abbrv}
\bibdata{mybibfile,reference,main}
\bibcite{BUPCwebsite}{1}
\bibcite{bupc}{2}
\bibcite{edison}{3}
\bibcite{LLVMwebsite}{4}
\bibcite{mpas}{5}
\bibcite{shepard}{6}
\bibcite{chapel}{7}
\bibcite{x10}{8}
\bibcite{aries}{9}
\bibcite{crayxc}{10}
\bibcite{npb}{11}
\bibcite{Bell:2006}{12}
\bibcite{gasnet}{13}
\bibcite{milind}{14}
\bibcite{CGC96}{15}
\bibcite{hcmpi}{16}
\bibcite{rice-coalescing}{17}
\bibcite{Chen:2005}{18}
\bibcite{upc}{19}
\bibcite{Georganas2015}{20}
\bibcite{hpf}{21}
\bibcite{GSS96}{22}
\bibcite{Hayashi:2015}{23}
\bibcite{Hoefler2007}{24}
\bibcite{Husbands:2007}{25}
\bibcite{Iancu:2008}{26}
\bibcite{kandemir99global}{27}
\bibcite{pami}{28}
\bibcite{Luo:2012}{29}
\bibcite{Meracoulouswebsite}{30}
\bibcite{miniGMG_website}{31}
\bibcite{MGwebsite}{32}
\bibcite{mpi}{33}
\bibcite{Nguyen:2012}{34}
\bibcite{Nishtala:2009}{35}
\bibcite{Shan:2015}{36}
\bibcite{shmem}{37}
\bibcite{ctf}{38}
\bibcite{mfdn}{39}
\bibcite{su95advanced}{40}
\bibcite{SudarsanBCKMOZS11}{41}
\bibcite{fortran-d}{42}
\bibcite{TechReport_miniGMG}{43}
\bibcite{SC12_CAMG}{44}
\bibcite{upcc}{45}
\bibcite{ZH98}{46}
\@writefile{toc}{\contentsline {section}{References}{11}}
